\select@language {russian}
\contentsline {chapter}{\numberline {1}\IeC {\CYRO }\IeC {\cyrb }\IeC {\cyrshch }\IeC {\cyra }\IeC {\cyrya } \IeC {\cyrh }\IeC {\cyra }\IeC {\cyrr }\IeC {\cyra }\IeC {\cyrk }\IeC {\cyrt }\IeC {\cyre }\IeC {\cyrr }\IeC {\cyri }\IeC {\cyrs }\IeC {\cyrt }\IeC {\cyri }\IeC {\cyrk }\IeC {\cyra }, \IeC {\cyrn }\IeC {\cyra }\IeC {\cyrz }\IeC {\cyrn }\IeC {\cyra }\IeC {\cyrch }\IeC {\cyre }\IeC {\cyrn }\IeC {\cyri }\IeC {\cyre }, \IeC {\cyri }\IeC {\cyrs }\IeC {\cyrt }\IeC {\cyro }\IeC {\cyrr }\IeC {\cyri }\IeC {\cyrya }}{4}{chapter.1}
\contentsline {section}{\numberline {}\IeC {\CYRV }\IeC {\cyrv }\IeC {\cyre }\IeC {\cyrd }\IeC {\cyre }\IeC {\cyrn }\IeC {\cyri }\IeC {\cyre }}{4}{section.1.1}
\contentsline {section}{\numberline {}\IeC {\CYRV }\IeC {\cyro }\IeC {\cyrp }\IeC {\cyrr }\IeC {\cyro }\IeC {\cyrs }\IeC {\cyrery } \IeC {\cyrt }\IeC {\cyre }\IeC {\cyrr }\IeC {\cyrm }\IeC {\cyri }\IeC {\cyrn }\IeC {\cyro }\IeC {\cyrl }\IeC {\cyro }\IeC {\cyrg }\IeC {\cyri }\IeC {\cyri }}{6}{section.1.2}
\contentsline {section}{\numberline {}\IeC {\CYRP }\IeC {\cyrr }\IeC {\cyre }\IeC {\cyrd }\IeC {\cyrery }\IeC {\cyrs }\IeC {\cyrt }\IeC {\cyro }\IeC {\cyrr }\IeC {\cyri }\IeC {\cyrya }}{9}{section.1.3}
\contentsline {section}{\numberline {}\IeC {\CYRP }\IeC {\cyro }\IeC {\cyrya }\IeC {\cyrv }\IeC {\cyrl }\IeC {\cyre }\IeC {\cyrn }\IeC {\cyri }\IeC {\cyre } Salix}{11}{section.1.4}
\contentsline {section}{\numberline {}Salix: \IeC {\cyrch }\IeC {\cyrt }\IeC {\cyro } \IeC {\cyrb }\IeC {\cyrery }\IeC {\cyrl }\IeC {\cyro } \IeC {\cyrd }\IeC {\cyra }\IeC {\cyrl }\IeC {\cyrsftsn }\IeC {\cyrsh }\IeC {\cyre }}{14}{section.1.5}
\contentsline {chapter}{\numberline {2}\IeC {\CYRS }\IeC {\cyrt }\IeC {\cyra }\IeC {\cyrn }\IeC {\cyrd }\IeC {\cyra }\IeC {\cyrr }\IeC {\cyrt }\IeC {\cyrn }\IeC {\cyra }\IeC {\cyrya } \IeC {\cyru }\IeC {\cyrs }\IeC {\cyrt }\IeC {\cyra }\IeC {\cyrn }\IeC {\cyro }\IeC {\cyrv }\IeC {\cyrk }\IeC {\cyra }}{16}{chapter.2}
\contentsline {section}{\numberline {}\IeC {\CYRS }\IeC {\cyri }\IeC {\cyrs }\IeC {\cyrt }\IeC {\cyre }\IeC {\cyrm }\IeC {\cyrn }\IeC {\cyrery }\IeC {\cyre } \IeC {\cyrt }\IeC {\cyrr }\IeC {\cyre }\IeC {\cyrb }\IeC {\cyro }\IeC {\cyrv }\IeC {\cyra }\IeC {\cyrn }\IeC {\cyri }\IeC {\cyrya }}{16}{section.2.1}
\contentsline {section}{\numberline {}\IeC {\CYRP }\IeC {\cyro }\IeC {\cyrd }\IeC {\cyrg }\IeC {\cyro }\IeC {\cyrt }\IeC {\cyro }\IeC {\cyrv }\IeC {\cyrk }\IeC {\cyra } \IeC {\cyri }\IeC {\cyrs }\IeC {\cyrt }\IeC {\cyro }\IeC {\cyrch }\IeC {\cyrn }\IeC {\cyri }\IeC {\cyrk }\IeC {\cyra } \IeC {\cyru }\IeC {\cyrs }\IeC {\cyrt }\IeC {\cyra }\IeC {\cyrn }\IeC {\cyro }\IeC {\cyrv }\IeC {\cyrk }\IeC {\cyri }}{17}{section.2.2}
\contentsline {section}{\numberline {}\IeC {\CYRL }\IeC {\cyri }\IeC {\cyrch }\IeC {\cyrn }\IeC {\cyra }\IeC {\cyrya } \IeC {\cyrs }\IeC {\cyra }\IeC {\cyrm }\IeC {\cyro }\IeC {\cyrp }\IeC {\cyro }\IeC {\cyrd }\IeC {\cyrg }\IeC {\cyro }\IeC {\cyrt }\IeC {\cyro }\IeC {\cyrv }\IeC {\cyrk }\IeC {\cyra }}{18}{section.2.3}
\contentsline {section}{\numberline {}\IeC {\CYRS }\IeC {\cyrt }\IeC {\cyra }\IeC {\cyrn }\IeC {\cyrd }\IeC {\cyra }\IeC {\cyrr }\IeC {\cyrt }\IeC {\cyrn }\IeC {\cyra }\IeC {\cyrya } \IeC {\cyru }\IeC {\cyrs }\IeC {\cyrt }\IeC {\cyra }\IeC {\cyrn }\IeC {\cyro }\IeC {\cyrv }\IeC {\cyrk }\IeC {\cyra }}{19}{section.2.4}
\contentsline {section}{\numberline {}\IeC {\CYRP }\IeC {\cyrr }\IeC {\cyre }\IeC {\cyrd }\IeC {\cyrv }\IeC {\cyra }\IeC {\cyrr }\IeC {\cyri }\IeC {\cyrt }\IeC {\cyre }\IeC {\cyrl }\IeC {\cyrsftsn }\IeC {\cyrn }\IeC {\cyrery }\IeC {\cyrishrt } \IeC {\cyri }\IeC {\cyrt }\IeC {\cyro }\IeC {\cyrg }}{28}{section.2.5}
\contentsline {chapter}{\numberline {3}\IeC {\CYRV }\IeC {\cyra }\IeC {\cyrr }\IeC {\cyri }\IeC {\cyra }\IeC {\cyrn }\IeC {\cyrt }\IeC {\cyrery } \IeC {\cyru }\IeC {\cyrs }\IeC {\cyrt }\IeC {\cyra }\IeC {\cyrn }\IeC {\cyro }\IeC {\cyrv }\IeC {\cyrk }\IeC {\cyri }}{29}{chapter.3}
\contentsline {section}{\numberline {}\IeC {\CYRV }\IeC {\cyrv }\IeC {\cyre }\IeC {\cyrd }\IeC {\cyre }\IeC {\cyrn }\IeC {\cyri }\IeC {\cyre }}{29}{section.3.1}
\contentsline {section}{\numberline {}\IeC {\CYRO }\IeC {\cyrs }\IeC {\cyro }\IeC {\cyrb }\IeC {\cyre }\IeC {\cyrn }\IeC {\cyrn }\IeC {\cyro }\IeC {\cyrs }\IeC {\cyrt }\IeC {\cyri } \IeC {\cyru }\IeC {\cyrs }\IeC {\cyrt }\IeC {\cyra }\IeC {\cyrn }\IeC {\cyro }\IeC {\cyrv }\IeC {\cyrk }\IeC {\cyri } BASIC \IeC {\cyri } CORE}{29}{section.3.2}
\contentsline {section}{\numberline {}\IeC {\CYRO }\IeC {\cyrs }\IeC {\cyro }\IeC {\cyrb }\IeC {\cyre }\IeC {\cyrn }\IeC {\cyrn }\IeC {\cyro }\IeC {\cyrs }\IeC {\cyrt }\IeC {\cyri } \IeC {\cyrr }\IeC {\cyre }\IeC {\cyrzh }\IeC {\cyri }\IeC {\cyrm }\IeC {\cyra } AUTOINSTALL}{34}{section.3.3}
\contentsline {section}{\numberline {}\IeC {\CYRU }\IeC {\cyrs }\IeC {\cyrt }\IeC {\cyra }\IeC {\cyrn }\IeC {\cyro }\IeC {\cyrv }\IeC {\cyrk }\IeC {\cyra } \IeC {\cyrn }\IeC {\cyra } \IeC {\cyrp }\IeC {\cyrr }\IeC {\cyro }\IeC {\cyrg }\IeC {\cyrr }\IeC {\cyra }\IeC {\cyrm }\IeC {\cyrm }\IeC {\cyrn }\IeC {\cyrery }\IeC {\cyrishrt } RAID}{35}{section.3.4}
\contentsline {section}{\numberline {}\IeC {\CYRE }\IeC {\cyrs }\IeC {\cyrt }\IeC {\cyrsftsn } \IeC {\cyrl }\IeC {\cyri } \IeC {\cyro }\IeC {\cyrs }\IeC {\cyro }\IeC {\cyrb }\IeC {\cyre }\IeC {\cyrn }\IeC {\cyrn }\IeC {\cyro }\IeC {\cyrs }\IeC {\cyrt }\IeC {\cyri } \IeC {\cyrp }\IeC {\cyrr }\IeC {\cyri } \IeC {\cyru }\IeC {\cyrs }\IeC {\cyrt }\IeC {\cyra }\IeC {\cyrn }\IeC {\cyro }\IeC {\cyrv }\IeC {\cyrk }\IeC {\cyre } \IeC {\cyrn }\IeC {\cyra } SSD?}{38}{section.3.5}
\contentsline {section}{\numberline {}\IeC {\CYRU }\IeC {\cyrs }\IeC {\cyrt }\IeC {\cyra }\IeC {\cyrn }\IeC {\cyro }\IeC {\cyrv }\IeC {\cyrk }\IeC {\cyra } \IeC {\cyrn }\IeC {\cyra } \IeC {\cyrn }\IeC {\cyro }\IeC {\cyru }\IeC {\cyrt }\IeC {\cyrb }\IeC {\cyru }\IeC {\cyrk }\IeC {\cyri } }{38}{section.3.6}
\contentsline {section}{\numberline {}\IeC {\CYRZ }\IeC {\cyra }\IeC {\cyrk }\IeC {\cyrl }\IeC {\cyryu }\IeC {\cyrch }\IeC {\cyre }\IeC {\cyrn }\IeC {\cyri }\IeC {\cyre } }{39}{section.3.7}
\contentsline {chapter}{\numberline {4}\IeC {\CYRI }\IeC {\cyrt }\IeC {\cyro }\IeC {\cyrg }\IeC {\cyri } \IeC {\cyru }\IeC {\cyrs }\IeC {\cyrt }\IeC {\cyra }\IeC {\cyrn }\IeC {\cyro }\IeC {\cyrv }\IeC {\cyrk }\IeC {\cyri }}{40}{chapter.4}
\contentsline {section}{\numberline {}\IeC {\CYRN }\IeC {\cyra }\IeC {\cyrch }\IeC {\cyra }\IeC {\cyrl }\IeC {\cyrsftsn }\IeC {\cyrn }\IeC {\cyra }\IeC {\cyrya } \IeC {\cyrz }\IeC {\cyra }\IeC {\cyrg }\IeC {\cyrr }\IeC {\cyru }\IeC {\cyrz }\IeC {\cyrk }\IeC {\cyra }}{40}{section.4.1}
\contentsline {section}{\numberline {}\IeC {\CYRV }\IeC {\cyra }\IeC {\cyrr }\IeC {\cyri }\IeC {\cyra }\IeC {\cyrn }\IeC {\cyrt } FULL}{42}{section.4.2}
\contentsline {section}{\numberline {}\IeC {\CYRV }\IeC {\cyra }\IeC {\cyrr }\IeC {\cyri }\IeC {\cyra }\IeC {\cyrn }\IeC {\cyrt } BASIC}{48}{section.4.3}
\contentsline {section}{\numberline {}\IeC {\CYRV }\IeC {\cyra }\IeC {\cyrr }\IeC {\cyri }\IeC {\cyra }\IeC {\cyrn }\IeC {\cyrt } CORE}{49}{section.4.4}
\contentsline {section}{\numberline {}\IeC {\CYRK }\IeC {\cyrr }\IeC {\cyra }\IeC {\cyrt }\IeC {\cyrk }\IeC {\cyri }\IeC {\cyrishrt } \IeC {\cyri }\IeC {\cyrt }\IeC {\cyro }\IeC {\cyrg }}{50}{section.4.5}
\contentsline {chapter}{\numberline {5}\IeC {\CYRU }\IeC {\cyrp }\IeC {\cyrr }\IeC {\cyra }\IeC {\cyrv }\IeC {\cyrl }\IeC {\cyre }\IeC {\cyrn }\IeC {\cyri }\IeC {\cyre } \IeC {\cyrp }\IeC {\cyra }\IeC {\cyrk }\IeC {\cyre }\IeC {\cyrt }\IeC {\cyra }\IeC {\cyrm }\IeC {\cyri }: slapt-get}{52}{chapter.5}
\contentsline {section}{\numberline {}\IeC {\CYRV }\IeC {\cyrv }\IeC {\cyre }\IeC {\cyrd }\IeC {\cyre }\IeC {\cyrn }\IeC {\cyri }\IeC {\cyre }}{52}{section.5.1}
\contentsline {section}{\numberline {}\IeC {\CYRU }\IeC {\cyrp }\IeC {\cyrr }\IeC {\cyra }\IeC {\cyrv }\IeC {\cyrl }\IeC {\cyre }\IeC {\cyrn }\IeC {\cyri }\IeC {\cyre } \IeC {\cyrp }\IeC {\cyra }\IeC {\cyrk }\IeC {\cyre }\IeC {\cyrt }\IeC {\cyra }\IeC {\cyrm }\IeC {\cyri }: \IeC {\cyro }\IeC {\cyrb }\IeC {\cyrz }\IeC {\cyro }\IeC {\cyrr }}{53}{section.5.2}
\contentsline {section}{\numberline {}\IeC {\CYRU }\IeC {\cyrt }\IeC {\cyri }\IeC {\cyrl }\IeC {\cyri }\IeC {\cyrt }\IeC {\cyra } slapt-get: \IeC {\cyro }\IeC {\cyrb }\IeC {\cyrz }\IeC {\cyro }\IeC {\cyrr } }{55}{section.5.3}
\contentsline {section}{\numberline {}\IeC {\CYRU }\IeC {\cyrt }\IeC {\cyri }\IeC {\cyrl }\IeC {\cyri }\IeC {\cyrt }\IeC {\cyra } slapt-get: \IeC {\cyrp }\IeC {\cyrr }\IeC {\cyri }\IeC {\cyrm }\IeC {\cyre }\IeC {\cyrn }\IeC {\cyre }\IeC {\cyrn }\IeC {\cyri }\IeC {\cyre } }{56}{section.5.4}
\contentsline {section}{\numberline {}\IeC {\CYRP }\IeC {\cyra }\IeC {\cyrr }\IeC {\cyra } \IeC {\cyrs }\IeC {\cyrl }\IeC {\cyro }\IeC {\cyrv } \IeC {\cyrv } \IeC {\cyrz }\IeC {\cyra }\IeC {\cyrk }\IeC {\cyrl }\IeC {\cyryu }\IeC {\cyrch }\IeC {\cyre }\IeC {\cyrn }\IeC {\cyri }\IeC {\cyre }}{61}{section.5.5}
\contentsline {chapter}{\numberline {6}\IeC {\CYRU }\IeC {\cyrp }\IeC {\cyrr }\IeC {\cyra }\IeC {\cyrv }\IeC {\cyrl }\IeC {\cyre }\IeC {\cyrn }\IeC {\cyri }\IeC {\cyre } \IeC {\cyrp }\IeC {\cyra }\IeC {\cyrk }\IeC {\cyre }\IeC {\cyrt }\IeC {\cyra }\IeC {\cyrm }\IeC {\cyri }: \IeC {\cyrr }\IeC {\cyre }\IeC {\cyrp }\IeC {\cyro }\IeC {\cyrz }\IeC {\cyri }\IeC {\cyrt }\IeC {\cyro }\IeC {\cyrr }\IeC {\cyri }\IeC {\cyri }}{62}{chapter.6}
\contentsline {section}{\numberline {}\IeC {\CYRS }\IeC {\cyre }\IeC {\cyrr }\IeC {\cyri }\IeC {\cyri } \IeC {\cyrp }\IeC {\cyra }\IeC {\cyrk }\IeC {\cyre }\IeC {\cyrt }\IeC {\cyro }\IeC {\cyrv } Slackware: \IeC {\cyrv }\IeC {\cyrm }\IeC {\cyre }\IeC {\cyrs }\IeC {\cyrt }\IeC {\cyro } \IeC {\cyrv }\IeC {\cyrv }\IeC {\cyre }\IeC {\cyrd }\IeC {\cyre }\IeC {\cyrn }\IeC {\cyri }\IeC {\cyrya }}{62}{section.6.1}
\contentsline {section}{\numberline {}\IeC {\CYRR }\IeC {\cyre }\IeC {\cyrp }\IeC {\cyro }\IeC {\cyrz }\IeC {\cyri }\IeC {\cyrt }\IeC {\cyro }\IeC {\cyrr }\IeC {\cyri }\IeC {\cyri } Salix}{64}{section.6.2}
\contentsline {section}{\numberline {}\IeC {\CYRN }\IeC {\cyra }\IeC {\cyrs }\IeC {\cyrt }\IeC {\cyrr }\IeC {\cyro }\IeC {\cyrishrt }\IeC {\cyrk }\IeC {\cyra } slapt-get}{69}{section.6.3}
\contentsline {section}{\numberline {}\IeC {\CYRD }\IeC {\cyro }\IeC {\cyrp }\IeC {\cyro }\IeC {\cyrl }\IeC {\cyrn }\IeC {\cyri }\IeC {\cyrt }\IeC {\cyre }\IeC {\cyrl }\IeC {\cyrsftsn }\IeC {\cyrn }\IeC {\cyrery }\IeC {\cyre } \IeC {\cyrr }\IeC {\cyre }\IeC {\cyrp }\IeC {\cyro }\IeC {\cyrz }\IeC {\cyri }\IeC {\cyrt }\IeC {\cyro }\IeC {\cyrr }\IeC {\cyri }\IeC {\cyri }}{71}{section.6.4}
\contentsline {chapter}{\numberline {7}\IeC {\CYRU }\IeC {\cyrp }\IeC {\cyrr }\IeC {\cyra }\IeC {\cyrv }\IeC {\cyrl }\IeC {\cyre }\IeC {\cyrn }\IeC {\cyri }\IeC {\cyre } \IeC {\cyrp }\IeC {\cyra }\IeC {\cyrk }\IeC {\cyre }\IeC {\cyrt }\IeC {\cyra }\IeC {\cyrm }\IeC {\cyri }: Gslapt}{73}{chapter.7}
\contentsline {section}{\numberline {}\IeC {\CYRO }\IeC {\cyrb }\IeC {\cyrz }\IeC {\cyro }\IeC {\cyrr }}{73}{section.7.1}
\contentsline {section}{\numberline {}\IeC {\CYRD }\IeC {\cyre }\IeC {\cyrishrt }\IeC {\cyrs }\IeC {\cyrt }\IeC {\cyrv }\IeC {\cyri }\IeC {\cyrya } \IeC {\cyrs } \IeC {\cyro }\IeC {\cyrt }\IeC {\cyrd }\IeC {\cyre }\IeC {\cyrl }\IeC {\cyrsftsn }\IeC {\cyrn }\IeC {\cyrery }\IeC {\cyrm }\IeC {\cyri } \IeC {\cyrp }\IeC {\cyra }\IeC {\cyrk }\IeC {\cyre }\IeC {\cyrt }\IeC {\cyra }\IeC {\cyrm }\IeC {\cyri }}{77}{section.7.2}
\contentsline {section}{\numberline {}\IeC {\CYRG }\IeC {\cyrr }\IeC {\cyru }\IeC {\cyrp }\IeC {\cyrp }\IeC {\cyro }\IeC {\cyrv }\IeC {\cyrery }\IeC {\cyre } \IeC {\cyrd }\IeC {\cyre }\IeC {\cyrishrt }\IeC {\cyrs }\IeC {\cyrt }\IeC {\cyrv }\IeC {\cyri }\IeC {\cyrya } \IeC {\cyrs } \IeC {\cyrp }\IeC {\cyra }\IeC {\cyrk }\IeC {\cyre }\IeC {\cyrt }\IeC {\cyra }\IeC {\cyrm }\IeC {\cyri }}{79}{section.7.3}
\contentsline {section}{\numberline {}\IeC {\CYRN }\IeC {\cyra }\IeC {\cyrs }\IeC {\cyrt }\IeC {\cyrr }\IeC {\cyro }\IeC {\cyrishrt }\IeC {\cyrk }\IeC {\cyra } Gslapt}{81}{section.7.4}
\contentsline {section}{\numberline {}\IeC {\CYRK }\IeC {\cyrr }\IeC {\cyra }\IeC {\cyrt }\IeC {\cyrk }\IeC {\cyri }\IeC {\cyrishrt } \IeC {\cyri }\IeC {\cyrt }\IeC {\cyro }\IeC {\cyrg }}{84}{section.7.5}
\contentsline {chapter}{\numberline {8}\IeC {\CYRU }\IeC {\cyrp }\IeC {\cyrr }\IeC {\cyra }\IeC {\cyrv }\IeC {\cyrl }\IeC {\cyre }\IeC {\cyrn }\IeC {\cyri }\IeC {\cyre } \IeC {\cyrp }\IeC {\cyra }\IeC {\cyrk }\IeC {\cyre }\IeC {\cyrt }\IeC {\cyra }\IeC {\cyrm }\IeC {\cyri }: \IeC {\cyrs }\IeC {\cyrb }\IeC {\cyro }\IeC {\cyrr }\IeC {\cyrk }\IeC {\cyra } \IeC {\cyri }\IeC {\cyrz } \IeC {\cyri }\IeC {\cyrs }\IeC {\cyrh }\IeC {\cyro }\IeC {\cyrd }\IeC {\cyrn }\IeC {\cyrery }\IeC {\cyrh } \IeC {\cyrt }\IeC {\cyre }\IeC {\cyrk }\IeC {\cyrs }\IeC {\cyrt }\IeC {\cyro }\IeC {\cyrv }}{85}{chapter.8}
\contentsline {section}{\numberline {}\IeC {\CYRCH }\IeC {\cyrt }\IeC {\cyro } \IeC {\cyrt }\IeC {\cyra }\IeC {\cyrk }\IeC {\cyro }\IeC {\cyre } slackbuilds}{85}{section.8.1}
\contentsline {section}{\numberline {}\IeC {\CYRS }\IeC {\cyrl }\IeC {\cyra }\IeC {\cyrk }\IeC {\cyrb }\IeC {\cyri }\IeC {\cyrl }\IeC {\cyrd }\IeC {\cyrery } \IeC {\cyri } Salix}{87}{section.8.2}
\contentsline {section}{\numberline {}\IeC {\CYRU }\IeC {\cyrt }\IeC {\cyri }\IeC {\cyrl }\IeC {\cyri }\IeC {\cyrt }\IeC {\cyra } slapt-src}{89}{section.8.3}
\contentsline {chapter}{\numberline {9}\IeC {\CYRU }\IeC {\cyrp }\IeC {\cyrr }\IeC {\cyra }\IeC {\cyrv }\IeC {\cyrl }\IeC {\cyre }\IeC {\cyrn }\IeC {\cyri }\IeC {\cyre } \IeC {\cyrp }\IeC {\cyra }\IeC {\cyrk }\IeC {\cyre }\IeC {\cyrt }\IeC {\cyra }\IeC {\cyrm }\IeC {\cyri }: \IeC {\cyro }\IeC {\cyrb }\IeC {\cyro }\IeC {\cyrl }\IeC {\cyro }\IeC {\cyrch }\IeC {\cyrk }\IeC {\cyra } Sourcery}{92}{chapter.9}
\contentsline {section}{\numberline {}\IeC {\CYRV }\IeC {\cyrs }\IeC {\cyrt }\IeC {\cyru }\IeC {\cyrp }\IeC {\cyrl }\IeC {\cyre }\IeC {\cyrn }\IeC {\cyri }\IeC {\cyre }}{92}{section.9.1}
\contentsline {section}{\numberline {}\IeC {\CYRP }\IeC {\cyrr }\IeC {\cyri }\IeC {\cyrm }\IeC {\cyre }\IeC {\cyrr } \IeC {\cyrp }\IeC {\cyrr }\IeC {\cyri }\IeC {\cyrm }\IeC {\cyre }\IeC {\cyrn }\IeC {\cyre }\IeC {\cyrn }\IeC {\cyri }\IeC {\cyrya }}{94}{section.9.2}
\contentsline {section}{\numberline {}\IeC {\CYRN }\IeC {\cyre }\IeC {\cyrm }\IeC {\cyrn }\IeC {\cyro }\IeC {\cyrg }\IeC {\cyro } \IeC {\cyro } \IeC {\cyrn }\IeC {\cyra }\IeC {\cyrs }\IeC {\cyrt }\IeC {\cyrr }\IeC {\cyro }\IeC {\cyrishrt }\IeC {\cyrk }\IeC {\cyre }}{98}{section.9.3}
\contentsline {chapter}{\numberline {10}\IeC {\guillemotleft }\IeC {\CYRF }\IeC {\cyri }\IeC {\cyrr }\IeC {\cyrm }\IeC {\cyre }\IeC {\cyrn }\IeC {\cyrn }\IeC {\cyrery }\IeC {\cyre }\IeC {\guillemotright } \IeC {\cyru }\IeC {\cyrt }\IeC {\cyri }\IeC {\cyrl }\IeC {\cyri }\IeC {\cyrt }\IeC {\cyrery }}{101}{chapter.10}
\contentsline {chapter}{\numberline {11}\IeC {\CYRR }\IeC {\cyre }\IeC {\cyrd }\IeC {\cyra }\IeC {\cyrk }\IeC {\cyrc }\IeC {\cyri }\IeC {\cyri } \IeC {\cyri } \IeC {\cyrs }\IeC {\cyro }\IeC {\cyrr }\IeC {\cyro }\IeC {\cyrd }\IeC {\cyri }\IeC {\cyrch }\IeC {\cyri }}{107}{chapter.11}
\contentsline {section}{\numberline {}Salix: MATE-\IeC {\cyrr }\IeC {\cyre }\IeC {\cyrd }\IeC {\cyra }\IeC {\cyrk }\IeC {\cyrc }\IeC {\cyri }\IeC {\cyrya }}{107}{section.11.1}
\contentsline {section}{\numberline {}Slackel, \IeC {\cyrs }\IeC {\cyrery }\IeC {\cyrn } Salix'\IeC {\cyra }: \IeC {\cyrv }\IeC {\cyrs }\IeC {\cyrt }\IeC {\cyru }\IeC {\cyrp }\IeC {\cyrl }\IeC {\cyre }\IeC {\cyrn }\IeC {\cyri }\IeC {\cyre }}{115}{section.11.2}
\contentsline {section}{\numberline {}Slackel, \IeC {\cyrs }\IeC {\cyrery }\IeC {\cyrn } Salix'\IeC {\cyra }: *box'\IeC {\cyro }\IeC {\cyrv }\IeC {\cyrery }\IeC {\cyre } \IeC {\cyrr }\IeC {\cyre }\IeC {\cyrd }\IeC {\cyra }\IeC {\cyrk }\IeC {\cyrc }\IeC {\cyri }\IeC {\cyri }}{117}{section.11.3}
\contentsline {section}{\numberline {}Slackel \IeC {\cyri } Salix: KDE-\IeC {\cyrr }\IeC {\cyre }\IeC {\cyrd }\IeC {\cyra }\IeC {\cyrk }\IeC {\cyrc }\IeC {\cyri }\IeC {\cyri }}{126}{section.11.4}
\contentsline {section}{\numberline {}Salix \IeC {\cyri } Slackel: \IeC {\cyru }\IeC {\cyrs }\IeC {\cyrt }\IeC {\cyra }\IeC {\cyrn }\IeC {\cyro }\IeC {\cyrv }\IeC {\cyrk }\IeC {\cyra } \IeC {\cyrs } LiveCD, \IeC {\cyri }\IeC {\cyrl }\IeC {\cyri } \IeC {\cyrp }\IeC {\cyrr }\IeC {\cyro }\IeC {\cyrshch }\IeC {\cyre } \IeC {\cyrn }\IeC {\cyre }\IeC {\cyrk }\IeC {\cyru }\IeC {\cyrd }\IeC {\cyra }}{131}{section.11.5}
\contentsline {chapter}{\numberline {12}\IeC {\CYRR }\IeC {\cyra }\IeC {\cyrz }\IeC {\cyrn }\IeC {\cyrery }\IeC {\cyre } \IeC {\cyrm }\IeC {\cyre }\IeC {\cyrl }\IeC {\cyrk }\IeC {\cyri }\IeC {\cyre } \IeC {\cyrp }\IeC {\cyro }\IeC {\cyrl }\IeC {\cyre }\IeC {\cyrz }\IeC {\cyrn }\IeC {\cyro }\IeC {\cyrs }\IeC {\cyrt }\IeC {\cyri }}{135}{chapter.12}
\contentsline {section}{\numberline {}\IeC {\CYRI }\IeC {\cyrs }\IeC {\cyrk }\IeC {\cyro }\IeC {\cyrr }\IeC {\cyre }\IeC {\cyrn }\IeC {\cyre }\IeC {\cyrn }\IeC {\cyri }\IeC {\cyre } \IeC {\cyrk }\IeC {\cyri }\IeC {\cyrr }\IeC {\cyri }\IeC {\cyrl }\IeC {\cyrl }\IeC {\cyri }\IeC {\cyrc }\IeC {\cyrery } \IeC {\cyri }\IeC {\cyrz } \IeC {\cyrd }\IeC {\cyro }\IeC {\cyrm }\IeC {\cyra }\IeC {\cyrsh }\IeC {\cyrn }\IeC {\cyre }\IeC {\cyrg }\IeC {\cyro } \IeC {\cyrk }\IeC {\cyra }\IeC {\cyrt }\IeC {\cyra }\IeC {\cyrl }\IeC {\cyro }\IeC {\cyrg }\IeC {\cyra }}{135}{section.12.1}
\contentsline {section}{\numberline {}\IeC {\CYRD }\IeC {\cyro }\IeC {\cyrv }\IeC {\cyro }\IeC {\cyrd }\IeC {\cyrk }\IeC {\cyra } \IeC {\cyrk }\IeC {\cyro }\IeC {\cyrn }\IeC {\cyrs }\IeC {\cyro }\IeC {\cyrl }\IeC {\cyrsftsn }\IeC {\cyrn }\IeC {\cyro }\IeC {\cyrg }\IeC {\cyro } \IeC {\cyrr }\IeC {\cyre }\IeC {\cyrzh }\IeC {\cyri }\IeC {\cyrm }\IeC {\cyra }: \IeC {\cyrv }\IeC {\cyrk }\IeC {\cyrl }\IeC {\cyryu }\IeC {\cyrch }\IeC {\cyre }\IeC {\cyrn }\IeC {\cyri }\IeC {\cyre } \IeC {\cyrm }\IeC {\cyrery }\IeC {\cyrsh }\IeC {\cyri } \IeC {\cyrv } \IeC {\cyrk }\IeC {\cyro }\IeC {\cyrn }\IeC {\cyrs }\IeC {\cyro }\IeC {\cyrl }\IeC {\cyri }}{136}{section.12.2}
\contentsline {section}{\numberline {}\IeC {\CYRD }\IeC {\cyro }\IeC {\cyrv }\IeC {\cyro }\IeC {\cyrd }\IeC {\cyrk }\IeC {\cyra } \IeC {\cyrk }\IeC {\cyro }\IeC {\cyrn }\IeC {\cyrs }\IeC {\cyro }\IeC {\cyrl }\IeC {\cyrsftsn }\IeC {\cyrn }\IeC {\cyro }\IeC {\cyrg }\IeC {\cyro } \IeC {\cyrr }\IeC {\cyre }\IeC {\cyrzh }\IeC {\cyri }\IeC {\cyrm }\IeC {\cyra }: \IeC {\cyrr }\IeC {\cyru }\IeC {\cyrs }\IeC {\cyri }\IeC {\cyrf }\IeC {\cyri }\IeC {\cyrk }\IeC {\cyra }\IeC {\cyrc }\IeC {\cyri }\IeC {\cyrya } \IeC {\cyrv }\IeC {\cyrery }\IeC {\cyrv }\IeC {\cyro }\IeC {\cyrd }\IeC {\cyra }}{137}{section.12.3}
\contentsline {section}{\numberline {}Thunar \IeC {\cyri } \IeC {\cyra }\IeC {\cyrr }\IeC {\cyrh }\IeC {\cyri }\IeC {\cyrv }\IeC {\cyrery }}{139}{section.12.4}
\contentsline {section}{\numberline {}Thunar \IeC {\cyri } \IeC {\cyrp }\IeC {\cyrr }\IeC {\cyra }\IeC {\cyrv }\IeC {\cyra } root'\IeC {\cyra }}{140}{section.12.5}
\contentsline {section}{\numberline {}Thunar \IeC {\cyri } \IeC {\cyrp }\IeC {\cyro }\IeC {\cyri }\IeC {\cyrs }\IeC {\cyrk } \IeC {\cyrf }\IeC {\cyra }\IeC {\cyrishrt }\IeC {\cyrl }\IeC {\cyro }\IeC {\cyrv }}{146}{section.12.6}
\contentsline {section}{\numberline {}Thunar \IeC {\cyri } \IeC {\CYRYA }\IeC {\cyrn }\IeC {\cyrd }\IeC {\cyre }\IeC {\cyrk }\IeC {\cyrs }.\IeC {\CYRD }\IeC {\cyri }\IeC {\cyrs }\IeC {\cyrk }}{148}{section.12.7}
\contentsline {section}{\numberline {}\IeC {\CYRSH }\IeC {\cyrp }\IeC {\cyra }\IeC {\cyrr }\IeC {\cyrg }\IeC {\cyra }\IeC {\cyrl }\IeC {\cyrk }\IeC {\cyri } \IeC {\cyrp }\IeC {\cyro } \IeC {\cyru }\IeC {\cyrs }\IeC {\cyrt }\IeC {\cyra }\IeC {\cyrn }\IeC {\cyro }\IeC {\cyrv }\IeC {\cyrk }\IeC {\cyre } \IeC {\cyrp }\IeC {\cyra }\IeC {\cyrk }\IeC {\cyre }\IeC {\cyrt }\IeC {\cyro }\IeC {\cyrv }: gThumb}{148}{section.12.8}
\contentsline {section}{\numberline {}\IeC {\CYRSH }\IeC {\cyrp }\IeC {\cyra }\IeC {\cyrr }\IeC {\cyrg }\IeC {\cyra }\IeC {\cyrl }\IeC {\cyrk }\IeC {\cyri } \IeC {\cyrp }\IeC {\cyro } \IeC {\cyru }\IeC {\cyrs }\IeC {\cyrt }\IeC {\cyra }\IeC {\cyrn }\IeC {\cyro }\IeC {\cyrv }\IeC {\cyrk }\IeC {\cyre } \IeC {\cyrp }\IeC {\cyra }\IeC {\cyrk }\IeC {\cyre }\IeC {\cyrt }\IeC {\cyro }\IeC {\cyrv }: GPRename}{149}{section.12.9}
\contentsline {section}{\numberline {}\IeC {\CYRSH }\IeC {\cyrp }\IeC {\cyra }\IeC {\cyrr }\IeC {\cyrg }\IeC {\cyra }\IeC {\cyrl }\IeC {\cyrk }\IeC {\cyri } \IeC {\cyrp }\IeC {\cyro } \IeC {\cyru }\IeC {\cyrs }\IeC {\cyrt }\IeC {\cyra }\IeC {\cyrn }\IeC {\cyro }\IeC {\cyrv }\IeC {\cyrk }\IeC {\cyre } \IeC {\cyrp }\IeC {\cyra }\IeC {\cyrk }\IeC {\cyre }\IeC {\cyrt }\IeC {\cyro }\IeC {\cyrv }: Chromium}{150}{section.12.10}
\contentsline {section}{\numberline {}\IeC {\CYRSH }\IeC {\cyrp }\IeC {\cyra }\IeC {\cyrr }\IeC {\cyrg }\IeC {\cyra }\IeC {\cyrl }\IeC {\cyrk }\IeC {\cyri } \IeC {\cyrp }\IeC {\cyro } \IeC {\cyru }\IeC {\cyrs }\IeC {\cyrt }\IeC {\cyra }\IeC {\cyrn }\IeC {\cyro }\IeC {\cyrv }\IeC {\cyrk }\IeC {\cyre } \IeC {\cyrp }\IeC {\cyra }\IeC {\cyrk }\IeC {\cyre }\IeC {\cyrt }\IeC {\cyro }\IeC {\cyrv }: \IeC {\CYRM }\IeC {\cyru }\IeC {\cyrl }\IeC {\cyrsftsn }\IeC {\cyrt }\IeC {\cyri }\IeC {\cyrm }\IeC {\cyre }\IeC {\cyrd }\IeC {\cyri }\IeC {\cyra }}{151}{section.12.11}
\contentsline {section}{\numberline {}\IeC {\CYRSH }\IeC {\cyrp }\IeC {\cyra }\IeC {\cyrr }\IeC {\cyrg }\IeC {\cyra }\IeC {\cyrl }\IeC {\cyrk }\IeC {\cyri } \IeC {\cyrp }\IeC {\cyro } \IeC {\cyru }\IeC {\cyrs }\IeC {\cyrt }\IeC {\cyra }\IeC {\cyrn }\IeC {\cyro }\IeC {\cyrv }\IeC {\cyrk }\IeC {\cyre } \IeC {\cyrp }\IeC {\cyra }\IeC {\cyrk }\IeC {\cyre }\IeC {\cyrt }\IeC {\cyro }\IeC {\cyrv }: \IeC {\cyrv }\IeC {\cyrery }\IeC {\cyrp }\IeC {\cyra }\IeC {\cyrd }\IeC {\cyra }\IeC {\cyryu }\IeC {\cyrshch }\IeC {\cyri }\IeC {\cyrishrt } \IeC {\cyrt }\IeC {\cyre }\IeC {\cyrr }\IeC {\cyrm }\IeC {\cyri }\IeC {\cyrn }\IeC {\cyra }\IeC {\cyrl } Tilda}{152}{section.12.12}
\contentsline {section}{\numberline {}\IeC {\CYRSH }\IeC {\cyrp }\IeC {\cyra }\IeC {\cyrr }\IeC {\cyrg }\IeC {\cyra }\IeC {\cyrl }\IeC {\cyrk }\IeC {\cyri } \IeC {\cyrp }\IeC {\cyro } \IeC {\cyru }\IeC {\cyrs }\IeC {\cyrt }\IeC {\cyra }\IeC {\cyrn }\IeC {\cyro }\IeC {\cyrv }\IeC {\cyrk }\IeC {\cyre } \IeC {\cyrp }\IeC {\cyra }\IeC {\cyrk }\IeC {\cyre }\IeC {\cyrt }\IeC {\cyro }\IeC {\cyrv }: VirtualBox}{156}{section.12.13}
\contentsline {section}{\numberline {}\IeC {\CYRSH }\IeC {\cyrp }\IeC {\cyra }\IeC {\cyrr }\IeC {\cyrg }\IeC {\cyra }\IeC {\cyrl }\IeC {\cyrk }\IeC {\cyri } \IeC {\cyrp }\IeC {\cyro } \IeC {\cyru }\IeC {\cyrs }\IeC {\cyrt }\IeC {\cyra }\IeC {\cyrn }\IeC {\cyro }\IeC {\cyrv }\IeC {\cyrk }\IeC {\cyre } \IeC {\cyrp }\IeC {\cyra }\IeC {\cyrk }\IeC {\cyre }\IeC {\cyrt }\IeC {\cyro }\IeC {\cyrv }: Komodo Editor}{157}{section.12.14}
\contentsline {section}{\numberline {}Dolphin \IeC {\cyri } Root}{158}{section.12.15}
\contentsline {section}{\numberline {}\IeC {\CYRP }\IeC {\cyro }\IeC {\cyrd }\IeC {\cyrd }\IeC {\cyre }\IeC {\cyrr }\IeC {\cyrzh }\IeC {\cyrk }\IeC {\cyra } f2fs \IeC {\cyri } nilfs2}{161}{section.12.16}
\contentsline {section}{\numberline {}\IeC {\CYRP }\IeC {\cyro }\IeC {\cyrd }\IeC {\cyrd }\IeC {\cyre }\IeC {\cyrr }\IeC {\cyrzh }\IeC {\cyrk }\IeC {\cyra } ZFS}{164}{section.12.17}
\contentsline {chapter}{\IeC {\CYRP }\IeC {\cyra }\IeC {\cyrr }\IeC {\cyra } \IeC {\cyrs }\IeC {\cyrl }\IeC {\cyro }\IeC {\cyrv } \IeC {\cyrv } \IeC {\cyrz }\IeC {\cyra }\IeC {\cyrk }\IeC {\cyrl }\IeC {\cyryu }\IeC {\cyrch }\IeC {\cyre }\IeC {\cyrn }\IeC {\cyri }\IeC {\cyre }}{168}{chapter*.165}
\contentsline {chapter}{\IeC {\CYRP }\IeC {\cyrr }\IeC {\cyri }\IeC {\cyrl }\IeC {\cyro }\IeC {\cyrzh }\IeC {\cyre }\IeC {\cyrn }\IeC {\cyri }\IeC {\cyre }. Slackware: \IeC {\cyrd }\IeC {\cyro }\IeC {\cyrp }\IeC {\cyro }\IeC {\cyrl }\IeC {\cyrn }\IeC {\cyri }\IeC {\cyrt }\IeC {\cyre }\IeC {\cyrl }\IeC {\cyrsftsn }\IeC {\cyrn }\IeC {\cyrery }\IeC {\cyre } \IeC {\cyrr }\IeC {\cyre }\IeC {\cyrp }\IeC {\cyro }\IeC {\cyrz }\IeC {\cyri }\IeC {\cyrt }\IeC {\cyro }\IeC {\cyrr }\IeC {\cyri }\IeC {\cyri }}{169}{chapter*.166}
\contentsline {section}{\numberline {}\IeC {\CYRR }\IeC {\cyre }\IeC {\cyrp }\IeC {\cyro }\IeC {\cyrz }\IeC {\cyri }\IeC {\cyrt }\IeC {\cyro }\IeC {\cyrr }\IeC {\cyri }\IeC {\cyrishrt } Slackware}{169}{section.12.18}
\contentsline {section}{\numberline {}\IeC {\CYRI }\IeC {\cyrn }\IeC {\cyrt }\IeC {\cyre }\IeC {\cyrg }\IeC {\cyrr }\IeC {\cyri }\IeC {\cyrr }\IeC {\cyro }\IeC {\cyrv }\IeC {\cyra }\IeC {\cyrn }\IeC {\cyrn }\IeC {\cyrery }\IeC {\cyre } \IeC {\cyrr }\IeC {\cyre }\IeC {\cyrp }\IeC {\cyro }\IeC {\cyrz }\IeC {\cyri }\IeC {\cyrt }\IeC {\cyro }\IeC {\cyrr }\IeC {\cyri }\IeC {\cyri }}{169}{section.12.19}
\contentsline {section}{\numberline {}\IeC {\CYRR }\IeC {\cyre }\IeC {\cyrp }\IeC {\cyro }\IeC {\cyrz }\IeC {\cyri }\IeC {\cyrt }\IeC {\cyro }\IeC {\cyrr }\IeC {\cyri }\IeC {\cyri } \IeC {\cyrp }\IeC {\cyrr }\IeC {\cyrya }\IeC {\cyrm }\IeC {\cyrery }\IeC {\cyrh } \IeC {\cyrk }\IeC {\cyrl }\IeC {\cyro }\IeC {\cyrn }\IeC {\cyro }\IeC {\cyrv }}{170}{section.12.20}
\contentsline {section}{\numberline {}\IeC {\CYRR }\IeC {\cyre }\IeC {\cyrp }\IeC {\cyro }\IeC {\cyrz }\IeC {\cyri }\IeC {\cyrt }\IeC {\cyro }\IeC {\cyrr }\IeC {\cyri }\IeC {\cyri } \IeC {\cyro }\IeC {\cyrb }\IeC {\cyrshch }\IeC {\cyre }\IeC {\cyrg }\IeC {\cyro } \IeC {\cyrn }\IeC {\cyra }\IeC {\cyrz }\IeC {\cyrn }\IeC {\cyra }\IeC {\cyrch }\IeC {\cyre }\IeC {\cyrn }\IeC {\cyri }\IeC {\cyrya }}{170}{section.12.21}
\contentsline {section}{\numberline {}\IeC {\CYRR }\IeC {\cyre }\IeC {\cyrp }\IeC {\cyro }\IeC {\cyrz }\IeC {\cyri }\IeC {\cyrt }\IeC {\cyro }\IeC {\cyrr }\IeC {\cyri }\IeC {\cyri } \IeC {\cyro }\IeC {\cyrt }\IeC {\cyrd }\IeC {\cyre }\IeC {\cyrl }\IeC {\cyrsftsn }\IeC {\cyrn }\IeC {\cyrery }\IeC {\cyrh } \IeC {\cyrd }\IeC {\cyre }\IeC {\cyrs }\IeC {\cyrk }\IeC {\cyrt }\IeC {\cyro }\IeC {\cyrp }\IeC {\cyro }\IeC {\cyrv } \IeC {\cyri } \IeC {\cyro }\IeC {\cyrk }\IeC {\cyro }\IeC {\cyrn }\IeC {\cyrn }\IeC {\cyrery }\IeC {\cyrh } \IeC {\cyrm }\IeC {\cyre }\IeC {\cyrn }\IeC {\cyre }\IeC {\cyrd }\IeC {\cyrzh }\IeC {\cyre }\IeC {\cyrr }\IeC {\cyro }\IeC {\cyrv }}{171}{section.12.22}
\contentsline {section}{\numberline {}\IeC {\CYRP }\IeC {\cyre }\IeC {\cyrr }\IeC {\cyrs }\IeC {\cyro }\IeC {\cyrn }\IeC {\cyra }\IeC {\cyrl }\IeC {\cyrsftsn }\IeC {\cyrn }\IeC {\cyrery }\IeC {\cyre } \IeC {\cyrr }\IeC {\cyre }\IeC {\cyrp }\IeC {\cyro }\IeC {\cyrz }\IeC {\cyri }\IeC {\cyrt }\IeC {\cyro }\IeC {\cyrr }\IeC {\cyri }\IeC {\cyri }}{171}{section.12.23}
\contentsline {section}{\numberline {}\IeC {\CYRS }\IeC {\cyrl }\IeC {\cyru }\IeC {\cyrzh }\IeC {\cyrb }\IeC {\cyrery } \IeC {\cyrp }\IeC {\cyro }\IeC {\cyri }\IeC {\cyrs }\IeC {\cyrk }\IeC {\cyra } \IeC {\cyrp }\IeC {\cyra }\IeC {\cyrk }\IeC {\cyre }\IeC {\cyrt }\IeC {\cyro }\IeC {\cyrv }}{172}{section.12.24}
\contentsline {chapter}{\IeC {\CYRL }\IeC {\cyri }\IeC {\cyrs }\IeC {\cyrt }\IeC {\cyri }\IeC {\cyrn }\IeC {\cyrg }\IeC {\cyri }}{173}{chapter*.167}
\contentsline {chapter}{\IeC {\CYRS }\IeC {\cyrp }\IeC {\cyri }\IeC {\cyrs }\IeC {\cyro }\IeC {\cyrk } \IeC {\cyri }\IeC {\cyrl }\IeC {\cyrl }\IeC {\cyryu }\IeC {\cyrs }\IeC {\cyrt }\IeC {\cyrr }\IeC {\cyra }\IeC {\cyrc }\IeC {\cyri }\IeC {\cyrishrt }}{173}{chapter*.167}
\contentsline {chapter}{\IeC {\CYRS }\IeC {\cyrp }\IeC {\cyri }\IeC {\cyrs }\IeC {\cyro }\IeC {\cyrk } \IeC {\cyrt }\IeC {\cyra }\IeC {\cyrb }\IeC {\cyrl }\IeC {\cyri }\IeC {\cyrc }}{177}{chapter*.169}
\contentsline {chapter}{\IeC {\CYRP }\IeC {\cyrr }\IeC {\cyre }\IeC {\cyrd }\IeC {\cyrm }\IeC {\cyre }\IeC {\cyrt }\IeC {\cyrn }\IeC {\cyrery }\IeC {\cyrishrt } \IeC {\cyru }\IeC {\cyrk }\IeC {\cyra }\IeC {\cyrz }\IeC {\cyra }\IeC {\cyrt }\IeC {\cyre }\IeC {\cyrl }\IeC {\cyrsftsn }}{177}{chapter*.169}
\contentsline {chapter}{\IeC {\CYRO }\IeC {\cyrg }\IeC {\cyrl }\IeC {\cyra }\IeC {\cyrv }\IeC {\cyrl }\IeC {\cyre }\IeC {\cyrn }\IeC {\cyri }\IeC {\cyre }}{177}{chapter*.169}
