\select@language {russian}
\addvspace {10\p@ }
\contentsline {figure}{\numberline {1.1}{\ignorespaces \IeC {\CYRP }\IeC {\cyra }\IeC {\cyrt }\IeC {\cyrr }\IeC {\cyri }\IeC {\cyrk } \IeC {\CYRF }\IeC {\cyro }\IeC {\cyrl }\IeC {\cyrsftsn }\IeC {\cyrk }\IeC {\cyre }\IeC {\cyrr }\IeC {\cyrd }\IeC {\cyri }\IeC {\cyrn }\IeC {\cyrg }, \IeC {\cyrs }\IeC {\cyro }\IeC {\cyrz }\IeC {\cyrd }\IeC {\cyra }\IeC {\cyrt }\IeC {\cyre }\IeC {\cyrl }\IeC {\cyrsftsn } Slackware\relax }}{9}{figure.caption.1}
\contentsline {figure}{\numberline {1.2}{\ignorespaces \IeC {\CYRZH }\IeC {\cyra }\IeC {\cyrn }-\IeC {\CYRF }\IeC {\cyri }\IeC {\cyrl }\IeC {\cyri }\IeC {\cyrp }\IeC {\cyrp } \IeC {\CYRG }\IeC {\cyri }\IeC {\cyrishrt }\IeC {\cyro }\IeC {\cyrm }\IeC {\cyre }\IeC {\cyrn }, \IeC {\cyrs }\IeC {\cyro }\IeC {\cyrz }\IeC {\cyrd }\IeC {\cyra }\IeC {\cyrt }\IeC {\cyre }\IeC {\cyrl }\IeC {\cyrsftsn } Zenwalk\relax }}{11}{figure.caption.2}
\contentsline {figure}{\numberline {1.3}{\ignorespaces \IeC {\CYRG }\IeC {\cyre }\IeC {\cyro }\IeC {\cyrr }\IeC {\cyrg }\IeC {\cyri }\IeC {\cyrishrt } \IeC {\CYRV }\IeC {\cyrl }\IeC {\cyra }\IeC {\cyrh }\IeC {\cyra }\IeC {\cyrv }\IeC {\cyra }\IeC {\cyrs }, \IeC {\cyrs }\IeC {\cyro }\IeC {\cyrz }\IeC {\cyrd }\IeC {\cyra }\IeC {\cyrt }\IeC {\cyre }\IeC {\cyrl }\IeC {\cyrsftsn } Salix\relax }}{12}{figure.caption.3}
\contentsline {figure}{\numberline {1.4}{\ignorespaces \IeC {\CYRP }\IeC {\cyrsftsn }\IeC {\cyre }\IeC {\cyrr }\IeC {\cyri }\IeC {\cyrk } \IeC {\CYRL }\IeC {\cyre } \IeC {\CYRB }\IeC {\cyrr }\IeC {\cyryo }\IeC {\cyrn }, \IeC {\cyrs }\IeC {\cyro }\IeC {\cyro }\IeC {\cyrs }\IeC {\cyrn }\IeC {\cyro }\IeC {\cyrv }\IeC {\cyra }\IeC {\cyrt }\IeC {\cyre }\IeC {\cyrl }\IeC {\cyrsftsn } Salix\relax }}{12}{figure.caption.4}
\contentsline {figure}{\numberline {1.5}{\ignorespaces \IeC {\CYRT }\IeC {\cyro }\IeC {\cyrr }\IeC {\cyrs }\IeC {\cyrt }\IeC {\cyre }\IeC {\cyrn } \IeC {\CYRM }\IeC {\cyryu }\IeC {\cyrl }\IeC {\cyrsftsn }\IeC {\cyrf }\IeC {\cyre }\IeC {\cyrl }\IeC {\cyrsftsn }\IeC {\cyrd }\IeC {\cyre }\IeC {\cyrr }, \IeC {\cyrs }\IeC {\cyro }\IeC {\cyro }\IeC {\cyrs }\IeC {\cyrn }\IeC {\cyro }\IeC {\cyrv }\IeC {\cyra }\IeC {\cyrt }\IeC {\cyre }\IeC {\cyrl }\IeC {\cyrsftsn } Salix \relax }}{13}{figure.caption.5}
\contentsline {figure}{\numberline {1.6}{\ignorespaces \IeC {\CYRI }\IeC {\cyrv }\IeC {\cyra } \IeC {\textendash } \IeC {\cyrt }\IeC {\cyra }\IeC {\cyrl }\IeC {\cyri }\IeC {\cyrs }\IeC {\cyrm }\IeC {\cyra }\IeC {\cyrn } \IeC {\cyrd }\IeC {\cyri }\IeC {\cyrs }\IeC {\cyrt }\IeC {\cyrr }\IeC {\cyri }\IeC {\cyrb }\IeC {\cyru }\IeC {\cyrt }\IeC {\cyri }\IeC {\cyrv }\IeC {\cyra } Salix \relax }}{13}{figure.caption.6}
\contentsline {figure}{\numberline {1.7}{\ignorespaces Salix -- \IeC {\cyrp }\IeC {\cyre }\IeC {\cyrr }\IeC {\cyrv }\IeC {\cyra }\IeC {\cyrya } \IeC {\cyrv }\IeC {\cyre }\IeC {\cyrr }\IeC {\cyrs }\IeC {\cyri }\IeC {\cyrya }\relax }}{14}{figure.caption.7}
\addvspace {10\p@ }
\contentsline {figure}{\numberline {2.1}{\ignorespaces \IeC {\CYRP }\IeC {\cyre }\IeC {\cyrr }\IeC {\cyre }\IeC {\cyrn }\IeC {\cyro }\IeC {\cyrs } iso-\IeC {\cyro }\IeC {\cyrb }\IeC {\cyrr }\IeC {\cyra }\IeC {\cyrz }\IeC {\cyra } Salix \IeC {\cyrn }\IeC {\cyra } \IeC {\cyrt }\IeC {\cyrv }\IeC {\cyre }\IeC {\cyrr }\IeC {\cyrd }\IeC {\cyro }\IeC {\cyrt }\IeC {\cyre }\IeC {\cyrl }\IeC {\cyrsftsn }\IeC {\cyrn }\IeC {\cyrery }\IeC {\cyrishrt } \IeC {\cyrn }\IeC {\cyro }\IeC {\cyrs }\IeC {\cyri }\IeC {\cyrt }\IeC {\cyre }\IeC {\cyrl }\IeC {\cyrsftsn } \IeC {\cyru }\IeC {\cyrt }\IeC {\cyri }\IeC {\cyrl }\IeC {\cyri }\IeC {\cyrt }\IeC {\cyro }\IeC {\cyrishrt } Unetbootin\relax }}{18}{figure.caption.8}
\contentsline {figure}{\numberline {2.2}{\ignorespaces \IeC {\CYRI }\IeC {\cyrn }\IeC {\cyrs }\IeC {\cyrt }\IeC {\cyra }\IeC {\cyrl }\IeC {\cyrl }\IeC {\cyrya }\IeC {\cyrc }\IeC {\cyri }\IeC {\cyrya } \IeC {\cyrn }\IeC {\cyra }\IeC {\cyrch }\IeC {\cyri }\IeC {\cyrn }\IeC {\cyra }\IeC {\cyre }\IeC {\cyrt }\IeC {\cyrs }\IeC {\cyrya } \IeC {\cyrs } \IeC {\cyrp }\IeC {\cyrr }\IeC {\cyre }\IeC {\cyrd }\IeC {\cyrl }\IeC {\cyro }\IeC {\cyrzh }\IeC {\cyre }\IeC {\cyrn }\IeC {\cyri }\IeC {\cyrya } \IeC {\cyrz }\IeC {\cyra }\IeC {\cyrg }\IeC {\cyrr }\IeC {\cyru }\IeC {\cyrz }\IeC {\cyri }\IeC {\cyrt }\IeC {\cyrsftsn } \IeC {\cyrya }\IeC {\cyrd }\IeC {\cyrr }\IeC {\cyro } \IeC {\cyrs }\IeC {\cyri }\IeC {\cyrs }\IeC {\cyrt }\IeC {\cyre }\IeC {\cyrm }\IeC {\cyrery }\relax }}{19}{figure.caption.9}
\contentsline {figure}{\numberline {2.3}{\ignorespaces \IeC {\CYRV }\IeC {\cyrery }\IeC {\cyrb }\IeC {\cyro }\IeC {\cyrr } \IeC {\cyrr }\IeC {\cyra }\IeC {\cyrs }\IeC {\cyrk }\IeC {\cyrl }\IeC {\cyra }\IeC {\cyrd }\IeC {\cyrk }\IeC {\cyri } \IeC {\cyrk }\IeC {\cyrl }\IeC {\cyra }\IeC {\cyrv }\IeC {\cyri }\IeC {\cyra }\IeC {\cyrt }\IeC {\cyru }\IeC {\cyrr }\IeC {\cyrery }\relax }}{20}{figure.caption.10}
\contentsline {figure}{\numberline {2.4}{\ignorespaces \IeC {\CYRV }\IeC {\cyrery }\IeC {\cyrb }\IeC {\cyro }\IeC {\cyrr } \IeC {\cyrr }\IeC {\cyre }\IeC {\cyrzh }\IeC {\cyri }\IeC {\cyrm }\IeC {\cyra } \IeC {\cyru }\IeC {\cyrs }\IeC {\cyrt }\IeC {\cyra }\IeC {\cyrn }\IeC {\cyro }\IeC {\cyrv }\IeC {\cyrk }\IeC {\cyri }\relax }}{20}{figure.caption.11}
\contentsline {figure}{\numberline {2.5}{\ignorespaces \IeC {\CYRV }\IeC {\cyrery }\IeC {\cyrb }\IeC {\cyro }\IeC {\cyrr } \IeC {\cyrd }\IeC {\cyri }\IeC {\cyrs }\IeC {\cyrk }\IeC {\cyra } \IeC {\cyrd }\IeC {\cyrl }\IeC {\cyrya } \IeC {\cyru }\IeC {\cyrs }\IeC {\cyrt }\IeC {\cyra }\IeC {\cyrn }\IeC {\cyro }\IeC {\cyrv }\IeC {\cyrk }\IeC {\cyri }\relax }}{21}{figure.caption.12}
\contentsline {figure}{\numberline {2.6}{\ignorespaces \IeC {\CYRV }\IeC {\cyrery }\IeC {\cyrb }\IeC {\cyro }\IeC {\cyrr } \IeC {\cyrk }\IeC {\cyro }\IeC {\cyrr }\IeC {\cyrn }\IeC {\cyre }\IeC {\cyrv }\IeC {\cyro }\IeC {\cyrg }\IeC {\cyro } \IeC {\cyrr }\IeC {\cyra }\IeC {\cyrz }\IeC {\cyrd }\IeC {\cyre }\IeC {\cyrl }\IeC {\cyra }\relax }}{22}{figure.caption.13}
\contentsline {figure}{\numberline {2.7}{\ignorespaces \IeC {\CYRV }\IeC {\cyrery }\IeC {\cyrb }\IeC {\cyro }\IeC {\cyrr } \IeC {\cyrr }\IeC {\cyre }\IeC {\cyrzh }\IeC {\cyri }\IeC {\cyrm }\IeC {\cyra } \IeC {\cyrf }\IeC {\cyro }\IeC {\cyrr }\IeC {\cyrm }\IeC {\cyra }\IeC {\cyrt }\IeC {\cyri }\IeC {\cyrr }\IeC {\cyro }\IeC {\cyrv }\IeC {\cyra }\IeC {\cyrn }\IeC {\cyri }\IeC {\cyrya }\relax }}{22}{figure.caption.14}
\contentsline {figure}{\numberline {2.8}{\ignorespaces \IeC {\CYRV }\IeC {\cyrery }\IeC {\cyrb }\IeC {\cyro }\IeC {\cyrr } \IeC {\cyrf }\IeC {\cyra }\IeC {\cyrishrt }\IeC {\cyrl }\IeC {\cyro }\IeC {\cyrv }\IeC {\cyro }\IeC {\cyrishrt } \IeC {\cyrs }\IeC {\cyri }\IeC {\cyrs }\IeC {\cyrt }\IeC {\cyre }\IeC {\cyrm }\IeC {\cyrery } \IeC {\cyrd }\IeC {\cyrl }\IeC {\cyrya } \IeC {\cyrk }\IeC {\cyro }\IeC {\cyrr }\IeC {\cyrn }\IeC {\cyre }\IeC {\cyrv }\IeC {\cyro }\IeC {\cyrg }\IeC {\cyro } \IeC {\cyrr }\IeC {\cyra }\IeC {\cyrz }\IeC {\cyrd }\IeC {\cyre }\IeC {\cyrl }\IeC {\cyra }\relax }}{23}{figure.caption.15}
\contentsline {figure}{\numberline {2.9}{\ignorespaces \IeC {\CYRI }\IeC {\cyrt }\IeC {\cyro }\IeC {\cyrg } \IeC {\cyrr }\IeC {\cyra }\IeC {\cyrz }\IeC {\cyrm }\IeC {\cyre }\IeC {\cyrt }\IeC {\cyrk }\IeC {\cyri } \IeC {\cyrd }\IeC {\cyri }\IeC {\cyrs }\IeC {\cyrk }\IeC {\cyra } \IeC {\cyri } \IeC {\cyrf }\IeC {\cyro }\IeC {\cyrr }\IeC {\cyrm }\IeC {\cyra }\IeC {\cyrt }\IeC {\cyri }\IeC {\cyrr }\IeC {\cyro }\IeC {\cyrv }\IeC {\cyra }\IeC {\cyrn }\IeC {\cyri }\IeC {\cyrya }\relax }}{24}{figure.caption.16}
\contentsline {figure}{\numberline {2.10}{\ignorespaces \IeC {\CYRV }\IeC {\cyrery }\IeC {\cyrb }\IeC {\cyro }\IeC {\cyrr } \IeC {\cyrv }\IeC {\cyra }\IeC {\cyrr }\IeC {\cyri }\IeC {\cyra }\IeC {\cyrn }\IeC {\cyrt }\IeC {\cyra } \IeC {\cyru }\IeC {\cyrs }\IeC {\cyrt }\IeC {\cyra }\IeC {\cyrn }\IeC {\cyro }\IeC {\cyrv }\IeC {\cyrk }\IeC {\cyri }\relax }}{24}{figure.caption.17}
\contentsline {figure}{\numberline {2.11}{\ignorespaces \IeC {\CYRU }\IeC {\cyrs }\IeC {\cyrt }\IeC {\cyra }\IeC {\cyrn }\IeC {\cyro }\IeC {\cyrv }\IeC {\cyrk }\IeC {\cyra } \IeC {\cyrz }\IeC {\cyra }\IeC {\cyrg }\IeC {\cyrr }\IeC {\cyru }\IeC {\cyrz }\IeC {\cyrch }\IeC {\cyri }\IeC {\cyrk }\IeC {\cyra } LILO\relax }}{25}{figure.caption.18}
\contentsline {figure}{\numberline {2.12}{\ignorespaces \IeC {\CYRV }\IeC {\cyrery }\IeC {\cyrb }\IeC {\cyro }\IeC {\cyrr } \IeC {\cyrm }\IeC {\cyre }\IeC {\cyrs }\IeC {\cyrt }\IeC {\cyra } \IeC {\cyrr }\IeC {\cyra }\IeC {\cyrz }\IeC {\cyrm }\IeC {\cyre }\IeC {\cyrshch }\IeC {\cyre }\IeC {\cyrn }\IeC {\cyri }\IeC {\cyrya } \IeC {\cyrz }\IeC {\cyra }\IeC {\cyrg }\IeC {\cyrr }\IeC {\cyru }\IeC {\cyrz }\IeC {\cyrch }\IeC {\cyri }\IeC {\cyrk }\IeC {\cyra }\relax }}{26}{figure.caption.19}
\contentsline {figure}{\numberline {2.13}{\ignorespaces \IeC {\CYRV }\IeC {\cyrery }\IeC {\cyrb }\IeC {\cyro }\IeC {\cyrr } \IeC {\cyrv }\IeC {\cyri }\IeC {\cyrd }\IeC {\cyre }\IeC {\cyro }\IeC {\cyrr }\IeC {\cyre }\IeC {\cyrzh }\IeC {\cyri }\IeC {\cyrm }\IeC {\cyra } \IeC {\cyrd }\IeC {\cyrl }\IeC {\cyrya } \IeC {\cyrz }\IeC {\cyra }\IeC {\cyrp }\IeC {\cyru }\IeC {\cyrs }\IeC {\cyrk }\IeC {\cyra } \IeC {\cyrz }\IeC {\cyra }\IeC {\cyrg }\IeC {\cyrr }\IeC {\cyru }\IeC {\cyrz }\IeC {\cyrch }\IeC {\cyri }\IeC {\cyrk }\IeC {\cyra }\relax }}{26}{figure.caption.20}
\contentsline {figure}{\numberline {2.14}{\ignorespaces \IeC {\CYRS }\IeC {\cyro }\IeC {\cyrz }\IeC {\cyrd }\IeC {\cyra }\IeC {\cyrn }\IeC {\cyri }\IeC {\cyre } \IeC {\cyrp }\IeC {\cyro }\IeC {\cyrl }\IeC {\cyrsftsn }\IeC {\cyrz }\IeC {\cyro }\IeC {\cyrv }\IeC {\cyra }\IeC {\cyrt }\IeC {\cyre }\IeC {\cyrl }\IeC {\cyrsftsn }\IeC {\cyrs }\IeC {\cyrk }\IeC {\cyro }\IeC {\cyrg }\IeC {\cyro } \IeC {\cyra }\IeC {\cyrk }\IeC {\cyrk }\IeC {\cyra }\IeC {\cyru }\IeC {\cyrn }\IeC {\cyrt }\IeC {\cyra }\relax }}{27}{figure.caption.21}
\contentsline {figure}{\numberline {2.15}{\ignorespaces \IeC {\CYRV }\IeC {\cyrery }\IeC {\cyrb }\IeC {\cyro }\IeC {\cyrr } \IeC {\cyrs }\IeC {\cyre }\IeC {\cyrr }\IeC {\cyrv }\IeC {\cyre }\IeC {\cyrr }\IeC {\cyra } \IeC {\cyrs } \IeC {\cyrz }\IeC {\cyre }\IeC {\cyrr }\IeC {\cyrk }\IeC {\cyra }\IeC {\cyrl }\IeC {\cyro }\IeC {\cyrm } \IeC {\cyrr }\IeC {\cyre }\IeC {\cyrp }\IeC {\cyro }\IeC {\cyrz }\IeC {\cyri }\IeC {\cyrt }\IeC {\cyro }\IeC {\cyrr }\IeC {\cyri }\IeC {\cyrya } Salix\relax }}{28}{figure.caption.22}
\addvspace {10\p@ }
\contentsline {figure}{\numberline {3.1}{\ignorespaces \IeC {\CYRP }\IeC {\cyrr }\IeC {\cyri }\IeC {\cyrg }\IeC {\cyrl }\IeC {\cyra }\IeC {\cyrsh }\IeC {\cyre }\IeC {\cyrn }\IeC {\cyri }\IeC {\cyre } \IeC {\cyrk } \IeC {\cyrn }\IeC {\cyra }\IeC {\cyrs }\IeC {\cyrt }\IeC {\cyrr }\IeC {\cyro }\IeC {\cyrishrt }\IeC {\cyrk }\IeC {\cyre } \IeC {\cyrs }\IeC {\cyre }\IeC {\cyrt }\IeC {\cyri }\relax }}{30}{figure.caption.23}
\contentsline {figure}{\numberline {3.2}{\ignorespaces \IeC {\CYRO }\IeC {\cyrp }\IeC {\cyrr }\IeC {\cyre }\IeC {\cyrd }\IeC {\cyre }\IeC {\cyrl }\IeC {\cyre }\IeC {\cyrn }\IeC {\cyri }\IeC {\cyre } \IeC {\cyri }\IeC {\cyrm }\IeC {\cyre }\IeC {\cyrn }\IeC {\cyri } \IeC {\cyrm }\IeC {\cyra }\IeC {\cyrsh }\IeC {\cyri }\IeC {\cyrn }\IeC {\cyrery }\relax }}{31}{figure.caption.24}
\contentsline {figure}{\numberline {3.3}{\ignorespaces \IeC {\CYRO }\IeC {\cyrp }\IeC {\cyrr }\IeC {\cyre }\IeC {\cyrd }\IeC {\cyre }\IeC {\cyrl }\IeC {\cyre }\IeC {\cyrn }\IeC {\cyri }\IeC {\cyre } \IeC {\cyri }\IeC {\cyrm }\IeC {\cyre }\IeC {\cyrn }\IeC {\cyri } \IeC {\cyrd }\IeC {\cyro }\IeC {\cyrm }\IeC {\cyre }\IeC {\cyrn }\IeC {\cyra }\relax }}{31}{figure.caption.25}
\contentsline {figure}{\numberline {3.4}{\ignorespaces \IeC {\CYRV }\IeC {\cyrery }\IeC {\cyrb }\IeC {\cyro }\IeC {\cyrr } \IeC {\cyrn }\IeC {\cyra }\IeC {\cyrs }\IeC {\cyrt }\IeC {\cyrr }\IeC {\cyro }\IeC {\cyrishrt }\IeC {\cyrk }\IeC {\cyri } \IeC {\cyrs } \IeC {\cyrs }\IeC {\cyre }\IeC {\cyrr }\IeC {\cyrv }\IeC {\cyre }\IeC {\cyrr }\IeC {\cyro }\IeC {\cyrm } DHCP\relax }}{32}{figure.caption.26}
\contentsline {figure}{\numberline {3.5}{\ignorespaces \IeC {\CYRI }\IeC {\cyrm }\IeC {\cyrya } \IeC {\cyrs }\IeC {\cyre }\IeC {\cyrr }\IeC {\cyrv }\IeC {\cyre }\IeC {\cyrr }\IeC {\cyra } DHCP (\IeC {\cyro }\IeC {\cyrp }\IeC {\cyrc }\IeC {\cyri }\IeC {\cyro }\IeC {\cyrn }\IeC {\cyra }\IeC {\cyrl }\IeC {\cyrsftsn }\IeC {\cyrn }\IeC {\cyro })\relax }}{32}{figure.caption.27}
\contentsline {figure}{\numberline {3.6}{\ignorespaces \IeC {\CYRK }\IeC {\cyro }\IeC {\cyrn }\IeC {\cyrf }\IeC {\cyri }\IeC {\cyrg }\IeC {\cyru }\IeC {\cyrr }\IeC {\cyra }\IeC {\cyrc }\IeC {\cyri }\IeC {\cyrya } \IeC {\cyrs }\IeC {\cyre }\IeC {\cyrt }\IeC {\cyri }\relax }}{33}{figure.caption.28}
\contentsline {figure}{\numberline {3.7}{\ignorespaces \IeC {\CYRS }\IeC {\cyrk }\IeC {\cyro }\IeC {\cyrn }\IeC {\cyrf }\IeC {\cyri }\IeC {\cyrg }\IeC {\cyru }\IeC {\cyrr }\IeC {\cyri }\IeC {\cyrr }\IeC {\cyro }\IeC {\cyrv }\IeC {\cyra }\IeC {\cyrn }\IeC {\cyra } \IeC {\cyrl }\IeC {\cyri } \IeC {\cyrs }\IeC {\cyre }\IeC {\cyrt }\IeC {\cyrsftsn } \IeC {\cyrs } \IeC {\cyrp }\IeC {\cyro }\IeC {\cyrm }\IeC {\cyro }\IeC {\cyrshch }\IeC {\cyrsftsn }\IeC {\cyryu } NetworkManager?\relax }}{33}{figure.caption.29}
\contentsline {figure}{\numberline {3.8}{\ignorespaces \IeC {\CYRN }\IeC {\cyra }\IeC {\cyrs }\IeC {\cyrt }\IeC {\cyrr }\IeC {\cyro }\IeC {\cyrishrt }\IeC {\cyrk }\IeC {\cyra } \IeC {\guillemotleft }\IeC {\cyrp }\IeC {\cyre }\IeC {\cyrt }\IeC {\cyrl }\IeC {\cyre }\IeC {\cyrv }\IeC {\cyro }\IeC {\cyrg }\IeC {\cyro }\IeC {\guillemotright } \IeC {\cyrs }\IeC {\cyro }\IeC {\cyre }\IeC {\cyrd }\IeC {\cyri }\IeC {\cyrn }\IeC {\cyre }\IeC {\cyrn }\IeC {\cyri }\IeC {\cyrya }\relax }}{34}{figure.caption.30}
\contentsline {figure}{\numberline {3.9}{\ignorespaces \IeC {\CYRV }\IeC {\cyrery }\IeC {\cyrb }\IeC {\cyro }\IeC {\cyrr } \IeC {\cyrd }\IeC {\cyri }\IeC {\cyrs }\IeC {\cyrk }\IeC {\cyra } \IeC {\cyrd }\IeC {\cyrl }\IeC {\cyrya } \IeC {\cyra }\IeC {\cyrv }\IeC {\cyrt }\IeC {\cyro }\IeC {\cyrm }\IeC {\cyra }\IeC {\cyrt }\IeC {\cyri }\IeC {\cyrch }\IeC {\cyre }\IeC {\cyrs }\IeC {\cyrk }\IeC {\cyro }\IeC {\cyrishrt } \IeC {\cyri }\IeC {\cyrn }\IeC {\cyrs }\IeC {\cyrt }\IeC {\cyra }\IeC {\cyrl }\IeC {\cyrl }\IeC {\cyrya }\IeC {\cyrc }\IeC {\cyri }\IeC {\cyri }\relax }}{34}{figure.caption.31}
\contentsline {figure}{\numberline {3.10}{\ignorespaces \IeC {\CYRR }\IeC {\cyre }\IeC {\cyrz }\IeC {\cyru }\IeC {\cyrl }\IeC {\cyrsftsn }\IeC {\cyrt }\IeC {\cyra }\IeC {\cyrt } \IeC {\cyra }\IeC {\cyrv }\IeC {\cyrt }\IeC {\cyro }\IeC {\cyrm }\IeC {\cyra }\IeC {\cyrt }\IeC {\cyri }\IeC {\cyrch }\IeC {\cyre }\IeC {\cyrs }\IeC {\cyrk }\IeC {\cyro }\IeC {\cyrishrt } \IeC {\cyrr }\IeC {\cyra }\IeC {\cyrz }\IeC {\cyrm }\IeC {\cyre }\IeC {\cyrt }\IeC {\cyrk }\IeC {\cyri } \IeC {\cyrd }\IeC {\cyri }\IeC {\cyrs }\IeC {\cyrk }\IeC {\cyra }\relax }}{35}{figure.caption.32}
\addvspace {10\p@ }
\contentsline {figure}{\numberline {4.1}{\ignorespaces \IeC {\CYRZ }\IeC {\cyra }\IeC {\cyrg }\IeC {\cyrr }\IeC {\cyru }\IeC {\cyrz }\IeC {\cyrch }\IeC {\cyri }\IeC {\cyrk } LILO\relax }}{40}{figure.caption.33}
\contentsline {figure}{\numberline {4.2}{\ignorespaces \IeC {\CYRP }\IeC {\cyrr }\IeC {\cyri }\IeC {\cyrg }\IeC {\cyrl }\IeC {\cyra }\IeC {\cyrsh }\IeC {\cyre }\IeC {\cyrn }\IeC {\cyri }\IeC {\cyre } \IeC {\cyrk } \IeC {\cyra }\IeC {\cyrv }\IeC {\cyrt }\IeC {\cyro }\IeC {\cyrr }\IeC {\cyri }\IeC {\cyrz }\IeC {\cyra }\IeC {\cyrc }\IeC {\cyri }\IeC {\cyri } \IeC {\cyrv } \IeC {\cyrg }\IeC {\cyrr }\IeC {\cyra }\IeC {\cyrf }\IeC {\cyri }\IeC {\cyrch }\IeC {\cyre }\IeC {\cyrs }\IeC {\cyrk }\IeC {\cyro }\IeC {\cyrm } \IeC {\cyrr }\IeC {\cyre }\IeC {\cyrzh }\IeC {\cyri }\IeC {\cyrm }\IeC {\cyre }\relax }}{41}{figure.caption.34}
\contentsline {figure}{\numberline {4.3}{\ignorespaces \IeC {\CYRS }\IeC {\cyrr }\IeC {\cyre }\IeC {\cyrd }\IeC {\cyra } Xfce \IeC {\cyrv } \IeC {\cyrd }\IeC {\cyri }\IeC {\cyrs }\IeC {\cyrt }\IeC {\cyrr }\IeC {\cyri }\IeC {\cyrb }\IeC {\cyru }\IeC {\cyrt }\IeC {\cyri }\IeC {\cyrv }\IeC {\cyre } Salix: \IeC {\cyrv }\IeC {\cyri }\IeC {\cyrd } \IeC {\cyrp }\IeC {\cyro } \IeC {\cyru }\IeC {\cyrm }\IeC {\cyro }\IeC {\cyrl }\IeC {\cyrch }\IeC {\cyra }\IeC {\cyrn }\IeC {\cyri }\IeC {\cyryu }\relax }}{42}{figure.caption.35}
\contentsline {figure}{\numberline {4.4}{\ignorespaces \IeC {\CYRG }\IeC {\cyrl }\IeC {\cyra }\IeC {\cyrv }\IeC {\cyrn }\IeC {\cyro }\IeC {\cyre } \IeC {\cyrm }\IeC {\cyre }\IeC {\cyrn }\IeC {\cyryu } Xfce\relax }}{43}{figure.caption.36}
\contentsline {figure}{\numberline {4.5}{\ignorespaces \IeC {\CYRG }\IeC {\cyrr }\IeC {\cyra }\IeC {\cyrf }\IeC {\cyri }\IeC {\cyrch }\IeC {\cyre }\IeC {\cyrs }\IeC {\cyrk }\IeC {\cyri }\IeC {\cyre } \IeC {\cyrp }\IeC {\cyrr }\IeC {\cyri }\IeC {\cyrl }\IeC {\cyro }\IeC {\cyrzh }\IeC {\cyre }\IeC {\cyrn }\IeC {\cyri }\IeC {\cyrya }\relax }}{43}{figure.caption.37}
\contentsline {figure}{\numberline {4.6}{\ignorespaces \IeC {\CYRO }\IeC {\cyrs }\IeC {\cyrn }\IeC {\cyro }\IeC {\cyrv }\IeC {\cyrn }\IeC {\cyro }\IeC {\cyrishrt } \IeC {\cyrp }\IeC {\cyro }\IeC {\cyrl }\IeC {\cyrsftsn }\IeC {\cyrz }\IeC {\cyro }\IeC {\cyrv }\IeC {\cyra }\IeC {\cyrt }\IeC {\cyre }\IeC {\cyrl }\IeC {\cyrsftsn }\IeC {\cyrs }\IeC {\cyrk }\IeC {\cyri }\IeC {\cyrishrt } \IeC {\cyri }\IeC {\cyrn }\IeC {\cyrs }\IeC {\cyrt }\IeC {\cyrr }\IeC {\cyru }\IeC {\cyrm }\IeC {\cyre }\IeC {\cyrn }\IeC {\cyrt }\IeC {\cyra }\IeC {\cyrr }\IeC {\cyri }\IeC {\cyrishrt }\relax }}{44}{figure.caption.38}
\contentsline {figure}{\numberline {4.7}{\ignorespaces \IeC {\CYRP }\IeC {\cyrr }\IeC {\cyro }\IeC {\cyrg }\IeC {\cyrr }\IeC {\cyra }\IeC {\cyrm }\IeC {\cyrm }\IeC {\cyrery } \IeC {\cyrd }\IeC {\cyrl }\IeC {\cyrya } \IeC {\cyrr }\IeC {\cyra }\IeC {\cyrb }\IeC {\cyro }\IeC {\cyrt }\IeC {\cyrery } \IeC {\cyrv } \IeC {\CYRI }\IeC {\cyrn }\IeC {\cyrt }\IeC {\cyre }\IeC {\cyrr }\IeC {\cyrn }\IeC {\cyre }\IeC {\cyrt }\IeC {\cyre }\relax }}{44}{figure.caption.39}
\contentsline {figure}{\numberline {4.8}{\ignorespaces \IeC {\CYRM }\IeC {\cyru }\IeC {\cyrl }\IeC {\cyrsftsn }\IeC {\cyrt }\IeC {\cyri }\IeC {\cyrm }\IeC {\cyre }\IeC {\cyrd }\IeC {\cyri }\IeC {\cyrishrt }\IeC {\cyrn }\IeC {\cyrery }\IeC {\cyre } \IeC {\cyrp }\IeC {\cyrr }\IeC {\cyro }\IeC {\cyrg }\IeC {\cyrr }\IeC {\cyra }\IeC {\cyrm }\IeC {\cyrm }\IeC {\cyrery }\relax }}{45}{figure.caption.40}
\contentsline {figure}{\numberline {4.9}{\ignorespaces LibreOffice \IeC {\cyrv }\IeC {\cyro } \IeC {\cyrv }\IeC {\cyrs }\IeC {\cyre }\IeC {\cyrishrt } \IeC {\cyrk }\IeC {\cyrr }\IeC {\cyra }\IeC {\cyrs }\IeC {\cyre }\relax }}{45}{figure.caption.41}
\contentsline {figure}{\numberline {4.10}{\ignorespaces \IeC {\CYRS }\IeC {\cyrr }\IeC {\cyre }\IeC {\cyrd }\IeC {\cyrs }\IeC {\cyrt }\IeC {\cyrv }\IeC {\cyra } \IeC {\cyrr }\IeC {\cyra }\IeC {\cyrz }\IeC {\cyrr }\IeC {\cyra }\IeC {\cyrb }\IeC {\cyro }\IeC {\cyrt }\IeC {\cyrk }\IeC {\cyri }\relax }}{46}{figure.caption.42}
\contentsline {figure}{\numberline {4.11}{\ignorespaces \IeC {\CYRP }\IeC {\cyro }\IeC {\cyrl }\IeC {\cyrsftsn }\IeC {\cyrz }\IeC {\cyro }\IeC {\cyrv }\IeC {\cyra }\IeC {\cyrt }\IeC {\cyre }\IeC {\cyrl }\IeC {\cyrsftsn }\IeC {\cyrs }\IeC {\cyrk }\IeC {\cyri }\IeC {\cyre } \IeC {\cyrn }\IeC {\cyra }\IeC {\cyrs }\IeC {\cyrt }\IeC {\cyrr }\IeC {\cyro }\IeC {\cyrishrt }\IeC {\cyrk }\IeC {\cyri }\relax }}{47}{figure.caption.43}
\contentsline {figure}{\numberline {4.12}{\ignorespaces \IeC {\CYRO }\IeC {\cyrb }\IeC {\cyrshch }\IeC {\cyre }\IeC {\cyrs }\IeC {\cyri }\IeC {\cyrs }\IeC {\cyrt }\IeC {\cyre }\IeC {\cyrm }\IeC {\cyrn }\IeC {\cyrery }\IeC {\cyre } \IeC {\cyrn }\IeC {\cyra }\IeC {\cyrs }\IeC {\cyrt }\IeC {\cyrr }\IeC {\cyro }\IeC {\cyrishrt }\IeC {\cyrk }\IeC {\cyri } \relax }}{47}{figure.caption.44}
\contentsline {figure}{\numberline {4.13}{\ignorespaces \IeC {\CYRU }\IeC {\cyrs }\IeC {\cyrt }\IeC {\cyra }\IeC {\cyrn }\IeC {\cyro }\IeC {\cyrv }\IeC {\cyrk }\IeC {\cyra } BASIC: \IeC {\cyrg }\IeC {\cyrl }\IeC {\cyra }\IeC {\cyrv }\IeC {\cyrn }\IeC {\cyro }\IeC {\cyre } \IeC {\cyrm }\IeC {\cyre }\IeC {\cyrn }\IeC {\cyryu } \IeC {\cyri } \IeC {\cyri }\IeC {\cyrn }\IeC {\cyrs }\IeC {\cyrt }\IeC {\cyrr }\IeC {\cyru }\IeC {\cyrm }\IeC {\cyre }\IeC {\cyrn }\IeC {\cyrt }\IeC {\cyra }\IeC {\cyrr }\IeC {\cyri }\IeC {\cyrishrt }\relax }}{49}{figure.caption.45}
\addvspace {10\p@ }
\contentsline {figure}{\numberline {5.1}{\ignorespaces \IeC {\CYRI }\IeC {\cyrn }\IeC {\cyrt }\IeC {\cyre }\IeC {\cyrr }\IeC {\cyrf }\IeC {\cyre }\IeC {\cyrishrt }\IeC {\cyrs } \IeC {\cyru }\IeC {\cyrt }\IeC {\cyri }\IeC {\cyrl }\IeC {\cyri }\IeC {\cyrt }\IeC {\cyrery } pkgtool\relax }}{54}{figure.caption.47}
\addvspace {10\p@ }
\contentsline {figure}{\numberline {6.1}{\ignorespaces \IeC {\CYRK }\IeC {\cyro }\IeC {\cyrr }\IeC {\cyrn }\IeC {\cyre }\IeC {\cyrv }\IeC {\cyro }\IeC {\cyrishrt } \IeC {\cyrk }\IeC {\cyra }\IeC {\cyrt }\IeC {\cyra }\IeC {\cyrl }\IeC {\cyro }\IeC {\cyrg } \IeC {\cyrr }\IeC {\cyre }\IeC {\cyrp }\IeC {\cyro }\IeC {\cyrz }\IeC {\cyri }\IeC {\cyrt }\IeC {\cyro }\IeC {\cyrr }\IeC {\cyri }\IeC {\cyrya } \IeC {\cyrd }\IeC {\cyrl }\IeC {\cyrya } 64-\IeC {\cyrr }\IeC {\cyra }\IeC {\cyrz }\IeC {\cyrr }\IeC {\cyrya }\IeC {\cyrd }\IeC {\cyrn }\IeC {\cyro }\IeC {\cyrishrt } \IeC {\cyra }\IeC {\cyrr }\IeC {\cyrh }\IeC {\cyri }\IeC {\cyrt }\IeC {\cyre }\IeC {\cyrk }\IeC {\cyrt }\IeC {\cyru }\IeC {\cyrr }\IeC {\cyrery }\relax }}{64}{figure.caption.48}
\contentsline {figure}{\numberline {6.2}{\ignorespaces \IeC {\CYRV }\IeC {\cyre }\IeC {\cyrt }\IeC {\cyrk }\IeC {\cyra } \IeC {\cyrr }\IeC {\cyre }\IeC {\cyrp }\IeC {\cyro }\IeC {\cyrz }\IeC {\cyri }\IeC {\cyrt }\IeC {\cyro }\IeC {\cyrr }\IeC {\cyri }\IeC {\cyrya } Salix, \IeC {\cyrz }\IeC {\cyra }\IeC {\cyri }\IeC {\cyrm }\IeC {\cyrs }\IeC {\cyrt }\IeC {\cyrv }\IeC {\cyro }\IeC {\cyrv }\IeC {\cyra }\IeC {\cyrn }\IeC {\cyrn }\IeC {\cyra }\IeC {\cyrya } \IeC {\cyri }\IeC {\cyrz } \IeC {\cyrp }\IeC {\cyrr }\IeC {\cyra }\IeC {\cyrr }\IeC {\cyro }\IeC {\cyrd }\IeC {\cyri }\IeC {\cyrt }\IeC {\cyre }\IeC {\cyrl }\IeC {\cyrsftsn }\IeC {\cyrs }\IeC {\cyrk }\IeC {\cyro }\IeC {\cyrg }\IeC {\cyro } \IeC {\cyrd }\IeC {\cyri }\IeC {\cyrs }\IeC {\cyrt }\IeC {\cyrr }\IeC {\cyri }\IeC {\cyrb }\IeC {\cyru }\IeC {\cyrt }\IeC {\cyri }\IeC {\cyrv }\IeC {\cyra }\relax }}{65}{figure.caption.49}
\contentsline {figure}{\numberline {6.3}{\ignorespaces \IeC {\CYRD }\IeC {\cyri }\IeC {\cyrs }\IeC {\cyrt }\IeC {\cyrr }\IeC {\cyri }\IeC {\cyrb }\IeC {\cyru }\IeC {\cyrt }\IeC {\cyri }\IeC {\cyrv }-\IeC {\cyrs }\IeC {\cyrp }\IeC {\cyre }\IeC {\cyrc }\IeC {\cyri }\IeC {\cyrf }\IeC {\cyri }\IeC {\cyrch }\IeC {\cyre }\IeC {\cyrs }\IeC {\cyrk }\IeC {\cyra }\IeC {\cyrya } \IeC {\cyrv }\IeC {\cyre }\IeC {\cyrt }\IeC {\cyrk }\IeC {\cyra } \IeC {\cyrr }\IeC {\cyre }\IeC {\cyrp }\IeC {\cyro }\IeC {\cyrz }\IeC {\cyri }\IeC {\cyrt }\IeC {\cyro }\IeC {\cyrr }\IeC {\cyri }\IeC {\cyrya } Salix\relax }}{67}{figure.caption.50}
\contentsline {figure}{\numberline {6.4}{\ignorespaces \IeC {\CYRO }\IeC {\cyrs }\IeC {\cyrn }\IeC {\cyro }\IeC {\cyrv }\IeC {\cyrn }\IeC {\cyrery }\IeC {\cyre } \IeC {\cyrk }\IeC {\cyra }\IeC {\cyrt }\IeC {\cyra }\IeC {\cyrl }\IeC {\cyro }\IeC {\cyrg }\IeC {\cyri } \IeC {\cyrv }\IeC {\cyre }\IeC {\cyrt }\IeC {\cyrk }\IeC {\cyri } Slackware\relax }}{68}{figure.caption.51}
\addvspace {10\p@ }
\contentsline {figure}{\numberline {7.1}{\ignorespaces \IeC {\CYRZ }\IeC {\cyra }\IeC {\cyrp }\IeC {\cyrr }\IeC {\cyro }\IeC {\cyrs } \IeC {\cyrp }\IeC {\cyra }\IeC {\cyrr }\IeC {\cyro }\IeC {\cyrl }\IeC {\cyrya } \IeC {\cyrp }\IeC {\cyro }\IeC {\cyrl }\IeC {\cyrsftsn }\IeC {\cyrz }\IeC {\cyro }\IeC {\cyrv }\IeC {\cyra }\IeC {\cyrt }\IeC {\cyre }\IeC {\cyrl }\IeC {\cyrya } \IeC {\cyrp }\IeC {\cyre }\IeC {\cyrr }\IeC {\cyre }\IeC {\cyrd } \IeC {\cyrz }\IeC {\cyra }\IeC {\cyrp }\IeC {\cyru }\IeC {\cyrs }\IeC {\cyrk }\IeC {\cyro }\IeC {\cyrm } Gslapt\relax }}{73}{figure.caption.53}
\contentsline {figure}{\numberline {7.2}{\ignorespaces Gslapt: \IeC {\cyrp }\IeC {\cyre }\IeC {\cyrr }\IeC {\cyrv }\IeC {\cyrery }\IeC {\cyrishrt } \IeC {\cyrz }\IeC {\cyra }\IeC {\cyrp }\IeC {\cyru }\IeC {\cyrs }\IeC {\cyrk }\relax }}{74}{figure.caption.54}
\contentsline {figure}{\numberline {7.3}{\ignorespaces Gslapt: \IeC {\cyrp }\IeC {\cyre }\IeC {\cyrr }\IeC {\cyrv }\IeC {\cyrery }\IeC {\cyrishrt } \IeC {\cyrz }\IeC {\cyra }\IeC {\cyrp }\IeC {\cyru }\IeC {\cyrs }\IeC {\cyrk }\relax }}{75}{figure.caption.55}
\contentsline {figure}{\numberline {7.4}{\ignorespaces Gslapt: \IeC {\cyro }\IeC {\cyrt }\IeC {\cyrm }\IeC {\cyre }\IeC {\cyrt }\IeC {\cyrk }\IeC {\cyra } \IeC {\cyrp }\IeC {\cyra }\IeC {\cyrk }\IeC {\cyre }\IeC {\cyrt }\IeC {\cyra } \IeC {\cyrd }\IeC {\cyrl }\IeC {\cyrya } \IeC {\cyrp }\IeC {\cyre }\IeC {\cyrr }\IeC {\cyre }\IeC {\cyru }\IeC {\cyrs }\IeC {\cyrt }\IeC {\cyra }\IeC {\cyrn }\IeC {\cyro }\IeC {\cyrv }\IeC {\cyrk }\IeC {\cyri } \IeC {\cyri }\IeC {\cyrl }\IeC {\cyri } \IeC {\cyru }\IeC {\cyrd }\IeC {\cyra }\IeC {\cyrl }\IeC {\cyre }\IeC {\cyrn }\IeC {\cyri }\IeC {\cyrya }\relax }}{75}{figure.caption.56}
\contentsline {figure}{\numberline {7.5}{\ignorespaces Gslapt: \IeC {\cyrl }\IeC {\cyre }\IeC {\cyrg }\IeC {\cyre }\IeC {\cyrn }\IeC {\cyrd }\IeC {\cyra } \IeC {\cyrd }\IeC {\cyrl }\IeC {\cyrya } \IeC {\cyro }\IeC {\cyrb }\IeC {\cyro }\IeC {\cyrz }\IeC {\cyrn }\IeC {\cyra }\IeC {\cyrch }\IeC {\cyre }\IeC {\cyrn }\IeC {\cyri }\IeC {\cyrya } \IeC {\cyrs }\IeC {\cyrt }\IeC {\cyra }\IeC {\cyrt }\IeC {\cyru }\IeC {\cyrs }\IeC {\cyra } \IeC {\cyrp }\IeC {\cyra }\IeC {\cyrk }\IeC {\cyre }\IeC {\cyrt }\IeC {\cyro }\IeC {\cyrv }\relax }}{76}{figure.caption.57}
\contentsline {figure}{\numberline {7.6}{\ignorespaces Gslapt: \IeC {\cyrs }\IeC {\cyrp }\IeC {\cyri }\IeC {\cyrs }\IeC {\cyrk }\IeC {\cyri } \IeC {\cyri }\IeC {\cyrz }\IeC {\cyrm }\IeC {\cyre }\IeC {\cyrn }\IeC {\cyre }\IeC {\cyrn }\IeC {\cyri }\IeC {\cyrya } \IeC {\cyrv } \IeC {\cyrr }\IeC {\cyre }\IeC {\cyrp }\IeC {\cyro }\IeC {\cyrz }\IeC {\cyri }\IeC {\cyrt }\IeC {\cyro }\IeC {\cyrr }\IeC {\cyri }\IeC {\cyrya }\IeC {\cyrh }\relax }}{76}{figure.caption.58}
\contentsline {figure}{\numberline {7.7}{\ignorespaces Gslapt: \IeC {\cyro } \IeC {\cyrp }\IeC {\cyrr }\IeC {\cyro }\IeC {\cyrg }\IeC {\cyrr }\IeC {\cyra }\IeC {\cyrm }\IeC {\cyrm }\IeC {\cyre }\relax }}{77}{figure.caption.59}
\contentsline {figure}{\numberline {7.8}{\ignorespaces \IeC {\CYRP }\IeC {\cyro }\IeC {\cyri }\IeC {\cyrs }\IeC {\cyrk } \IeC {\cyrp }\IeC {\cyra }\IeC {\cyrk }\IeC {\cyre }\IeC {\cyrt }\IeC {\cyro }\IeC {\cyrv }\relax }}{77}{figure.caption.60}
\contentsline {figure}{\numberline {7.9}{\ignorespaces \IeC {\CYRO }\IeC {\cyrp }\IeC {\cyri }\IeC {\cyrs }\IeC {\cyra }\IeC {\cyrn }\IeC {\cyri }\IeC {\cyre } \IeC {\cyrn }\IeC {\cyra }\IeC {\cyrishrt }\IeC {\cyrd }\IeC {\cyre }\IeC {\cyrn }\IeC {\cyrn }\IeC {\cyro }\IeC {\cyrg }\IeC {\cyro } \IeC {\cyrp }\IeC {\cyra }\IeC {\cyrk }\IeC {\cyre }\IeC {\cyrt }\IeC {\cyra }\relax }}{78}{figure.caption.61}
\contentsline {figure}{\numberline {7.10}{\ignorespaces \IeC {\CYRS }\IeC {\cyrp }\IeC {\cyri }\IeC {\cyrs }\IeC {\cyro }\IeC {\cyrk } \IeC {\cyrf }\IeC {\cyra }\IeC {\cyrishrt }\IeC {\cyrl }\IeC {\cyro }\IeC {\cyrv } \IeC {\cyrn }\IeC {\cyra }\IeC {\cyrishrt }\IeC {\cyrd }\IeC {\cyre }\IeC {\cyrn }\IeC {\cyrn }\IeC {\cyro }\IeC {\cyrg }\IeC {\cyro } \IeC {\cyrp }\IeC {\cyra }\IeC {\cyrk }\IeC {\cyre }\IeC {\cyrt }\IeC {\cyra }\relax }}{78}{figure.caption.62}
\contentsline {figure}{\numberline {7.11}{\ignorespaces \IeC {\CYRP }\IeC {\cyra }\IeC {\cyrk }\IeC {\cyre }\IeC {\cyrt }\IeC {\cyrery }-\IeC {\cyri }\IeC {\cyrs }\IeC {\cyrk }\IeC {\cyrl }\IeC {\cyryu }\IeC {\cyrch }\IeC {\cyre }\IeC {\cyrn }\IeC {\cyri }\IeC {\cyrya }\relax }}{79}{figure.caption.63}
\contentsline {figure}{\numberline {7.12}{\ignorespaces \IeC {\CYRS }\IeC {\cyrp }\IeC {\cyri }\IeC {\cyrs }\IeC {\cyro }\IeC {\cyrk } \IeC {\cyrp }\IeC {\cyra }\IeC {\cyrk }\IeC {\cyre }\IeC {\cyrt }\IeC {\cyro }\IeC {\cyrv }, \IeC {\cyrp }\IeC {\cyrr }\IeC {\cyre }\IeC {\cyrd }\IeC {\cyrn }\IeC {\cyra }\IeC {\cyrz }\IeC {\cyrn }\IeC {\cyra }\IeC {\cyrch }\IeC {\cyre }\IeC {\cyrn }\IeC {\cyrn }\IeC {\cyrery }\IeC {\cyrh } \IeC {\cyrk } \IeC {\cyro }\IeC {\cyrb }\IeC {\cyrn }\IeC {\cyro }\IeC {\cyrv }\IeC {\cyrl }\IeC {\cyre }\IeC {\cyrn }\IeC {\cyri }\IeC {\cyryu }\relax }}{80}{figure.caption.64}
\contentsline {figure}{\numberline {7.13}{\ignorespaces \IeC {\CYRP }\IeC {\cyrr }\IeC {\cyre }\IeC {\cyrd }\IeC {\cyrl }\IeC {\cyro }\IeC {\cyrzh }\IeC {\cyre }\IeC {\cyrn }\IeC {\cyri }\IeC {\cyre } \IeC {\cyra }\IeC {\cyrv }\IeC {\cyrt }\IeC {\cyro }\IeC {\cyrm }\IeC {\cyra }\IeC {\cyrt }\IeC {\cyri }\IeC {\cyrch }\IeC {\cyre }\IeC {\cyrs }\IeC {\cyrk }\IeC {\cyro }\IeC {\cyrg }\IeC {\cyro } \IeC {\cyro }\IeC {\cyrb }\IeC {\cyrn }\IeC {\cyro }\IeC {\cyrv }\IeC {\cyrl }\IeC {\cyre }\IeC {\cyrn }\IeC {\cyri }\IeC {\cyrya }\relax }}{81}{figure.caption.65}
\contentsline {figure}{\numberline {7.14}{\ignorespaces \IeC {\CYRO }\IeC {\cyrp }\IeC {\cyrr }\IeC {\cyre }\IeC {\cyrd }\IeC {\cyre }\IeC {\cyrl }\IeC {\cyre }\IeC {\cyrn }\IeC {\cyri }\IeC {\cyre } \IeC {\cyrr }\IeC {\cyra }\IeC {\cyrb }\IeC {\cyro }\IeC {\cyrch }\IeC {\cyre }\IeC {\cyrg }\IeC {\cyro } \IeC {\cyrk }\IeC {\cyra }\IeC {\cyrt }\IeC {\cyra }\IeC {\cyrl }\IeC {\cyro }\IeC {\cyrg }\IeC {\cyra } Gslapt\relax }}{82}{figure.caption.66}
\contentsline {figure}{\numberline {7.15}{\ignorespaces \IeC {\CYRS }\IeC {\cyrp }\IeC {\cyri }\IeC {\cyrs }\IeC {\cyro }\IeC {\cyrk } \IeC {\cyri }\IeC {\cyrs }\IeC {\cyrk }\IeC {\cyrl }\IeC {\cyryu }\IeC {\cyrch }\IeC {\cyre }\IeC {\cyrn }\IeC {\cyri }\IeC {\cyrishrt }\relax }}{82}{figure.caption.67}
\contentsline {figure}{\numberline {7.16}{\ignorespaces \IeC {\CYRR }\IeC {\cyre }\IeC {\cyrp }\IeC {\cyro }\IeC {\cyrz }\IeC {\cyri }\IeC {\cyrt }\IeC {\cyro }\IeC {\cyrr }\IeC {\cyri }\IeC {\cyri }\relax }}{83}{figure.caption.68}
\contentsline {figure}{\numberline {7.17}{\ignorespaces \IeC {\CYRD }\IeC {\cyro }\IeC {\cyrb }\IeC {\cyra }\IeC {\cyrv }\IeC {\cyrl }\IeC {\cyre }\IeC {\cyrn }\IeC {\cyri }\IeC {\cyre } \IeC {\cyrr }\IeC {\cyre }\IeC {\cyrp }\IeC {\cyro }\IeC {\cyrz }\IeC {\cyri }\IeC {\cyrt }\IeC {\cyro }\IeC {\cyrr }\IeC {\cyri }\IeC {\cyrya }\relax }}{83}{figure.caption.69}
\contentsline {figure}{\numberline {7.18}{\ignorespaces \IeC {\CYRP }\IeC {\cyrr }\IeC {\cyro }\IeC {\cyrv }\IeC {\cyre }\IeC {\cyrr }\IeC {\cyrk }\IeC {\cyra } GPG-\IeC {\cyrk }\IeC {\cyrl }\IeC {\cyryu }\IeC {\cyrch }\IeC {\cyre }\IeC {\cyrishrt }\relax }}{83}{figure.caption.70}
\addvspace {10\p@ }
\contentsline {figure}{\numberline {8.1}{\ignorespaces \IeC {\CYRS }\IeC {\cyrt }\IeC {\cyrr }\IeC {\cyru }\IeC {\cyrk }\IeC {\cyrt }\IeC {\cyru }\IeC {\cyrr }\IeC {\cyra } \IeC {\cyrr }\IeC {\cyre }\IeC {\cyrp }\IeC {\cyro }\IeC {\cyrz }\IeC {\cyri }\IeC {\cyrt }\IeC {\cyro }\IeC {\cyrr }\IeC {\cyri }\IeC {\cyrya } SlackBuilds.org\relax }}{86}{figure.caption.71}
\contentsline {figure}{\numberline {8.2}{\ignorespaces \IeC {\CYRK }\IeC {\cyro }\IeC {\cyrr }\IeC {\cyre }\IeC {\cyrn }\IeC {\cyrsftsn } \IeC {\cyro }\IeC {\cyrf }\IeC {\cyri }\IeC {\cyrc }\IeC {\cyri }\IeC {\cyra }\IeC {\cyrl }\IeC {\cyrsftsn }\IeC {\cyrn }\IeC {\cyro }\IeC {\cyrg }\IeC {\cyro } \IeC {\cyrr }\IeC {\cyre }\IeC {\cyrp }\IeC {\cyro }\IeC {\cyrz }\IeC {\cyri }\IeC {\cyrt }\IeC {\cyro }\IeC {\cyrr }\IeC {\cyri }\IeC {\cyrya } Salix\relax }}{87}{figure.caption.72}
\contentsline {figure}{\numberline {8.3}{\ignorespaces \IeC {\CYRS }\IeC {\cyrt }\IeC {\cyrr }\IeC {\cyru }\IeC {\cyrk }\IeC {\cyrt }\IeC {\cyru }\IeC {\cyrr }\IeC {\cyra } sbo-\IeC {\cyrr }\IeC {\cyre }\IeC {\cyrp }\IeC {\cyro }\IeC {\cyrz }\IeC {\cyri }\IeC {\cyrt }\IeC {\cyro }\IeC {\cyrr }\IeC {\cyri }\IeC {\cyrya } Salix\relax }}{88}{figure.caption.73}
\addvspace {10\p@ }
\contentsline {figure}{\numberline {9.1}{\ignorespaces \IeC {\CYRZ }\IeC {\cyra }\IeC {\cyrp }\IeC {\cyrr }\IeC {\cyro }\IeC {\cyrs } \IeC {\cyrp }\IeC {\cyra }\IeC {\cyrr }\IeC {\cyro }\IeC {\cyrl }\IeC {\cyrya }\relax }}{92}{figure.caption.74}
\contentsline {figure}{\numberline {9.2}{\ignorespaces \IeC {\CYRP }\IeC {\cyre }\IeC {\cyrr }\IeC {\cyrv }\IeC {\cyrery }\IeC {\cyrishrt } \IeC {\cyrz }\IeC {\cyra }\IeC {\cyrp }\IeC {\cyru }\IeC {\cyrs }\IeC {\cyrk }\relax }}{93}{figure.caption.75}
\contentsline {figure}{\numberline {9.3}{\ignorespaces \IeC {\CYRV }\IeC {\cyri }\IeC {\cyrd } \IeC {\cyrp }\IeC {\cyro } \IeC {\cyru }\IeC {\cyrm }\IeC {\cyro }\IeC {\cyrl }\IeC {\cyrch }\IeC {\cyra }\IeC {\cyrn }\IeC {\cyri }\IeC {\cyryu }\relax }}{93}{figure.caption.76}
\contentsline {figure}{\numberline {9.4}{\ignorespaces \IeC {\CYRV }\IeC {\cyrery }\IeC {\cyrb }\IeC {\cyro }\IeC {\cyrr } \IeC {\cyrp }\IeC {\cyra }\IeC {\cyrk }\IeC {\cyre }\IeC {\cyrt }\IeC {\cyra } \IeC {\cyrd }\IeC {\cyrl }\IeC {\cyrya } \IeC {\cyru }\IeC {\cyrs }\IeC {\cyrt }\IeC {\cyra }\IeC {\cyrn }\IeC {\cyro }\IeC {\cyrv }\IeC {\cyrk }\IeC {\cyri }\relax }}{94}{figure.caption.77}
\contentsline {figure}{\numberline {9.5}{\ignorespaces \IeC {\CYRI }\IeC {\cyrn }\IeC {\cyrf }\IeC {\cyro }\IeC {\cyrr }\IeC {\cyrm }\IeC {\cyra }\IeC {\cyrc }\IeC {\cyri }\IeC {\cyro }\IeC {\cyrn }\IeC {\cyrn }\IeC {\cyra }\IeC {\cyrya } \IeC {\cyrp }\IeC {\cyra }\IeC {\cyrn }\IeC {\cyre }\IeC {\cyrl }\IeC {\cyrsftsn }: \IeC {\cyro }\IeC {\cyrb }\IeC {\cyrshch }\IeC {\cyri }\IeC {\cyre } \IeC {\cyrs }\IeC {\cyrv }\IeC {\cyre }\IeC {\cyrd }\IeC {\cyre }\IeC {\cyrn }\IeC {\cyri }\IeC {\cyrya } \IeC {\cyro } \IeC {\cyrp }\IeC {\cyra }\IeC {\cyrk }\IeC {\cyre }\IeC {\cyrt }\IeC {\cyre }\relax }}{94}{figure.caption.78}
\contentsline {figure}{\numberline {9.6}{\ignorespaces \IeC {\CYRI }\IeC {\cyrn }\IeC {\cyrf }\IeC {\cyro }\IeC {\cyrr }\IeC {\cyrm }\IeC {\cyra }\IeC {\cyrc }\IeC {\cyri }\IeC {\cyro }\IeC {\cyrn }\IeC {\cyrn }\IeC {\cyra }\IeC {\cyrya } \IeC {\cyrp }\IeC {\cyra }\IeC {\cyrn }\IeC {\cyre }\IeC {\cyrl }\IeC {\cyrsftsn }: \IeC {\cyro }\IeC {\cyrp }\IeC {\cyri }\IeC {\cyrs }\IeC {\cyra }\IeC {\cyrn }\IeC {\cyri }\IeC {\cyre } \IeC {\cyrp }\IeC {\cyra }\IeC {\cyrk }\IeC {\cyre }\IeC {\cyrt }\IeC {\cyra }\relax }}{95}{figure.caption.79}
\contentsline {figure}{\numberline {9.7}{\ignorespaces \IeC {\CYRU }\IeC {\cyrs }\IeC {\cyrt }\IeC {\cyra }\IeC {\cyrn }\IeC {\cyro }\IeC {\cyrv }\IeC {\cyrk }\IeC {\cyra } \IeC {\cyro }\IeC {\cyrp }\IeC {\cyrc }\IeC {\cyri }\IeC {\cyrishrt } \IeC {\cyrk }\IeC {\cyro }\IeC {\cyrm }\IeC {\cyrp }\IeC {\cyri }\IeC {\cyrl }\IeC {\cyrya }\IeC {\cyrc }\IeC {\cyri }\IeC {\cyri }\relax }}{95}{figure.caption.80}
\contentsline {figure}{\numberline {9.8}{\ignorespaces \IeC {\CYRI }\IeC {\cyrn }\IeC {\cyrf }\IeC {\cyro }\IeC {\cyrr }\IeC {\cyrm }\IeC {\cyra }\IeC {\cyrc }\IeC {\cyri }\IeC {\cyro }\IeC {\cyrn }\IeC {\cyrn }\IeC {\cyra }\IeC {\cyrya } \IeC {\cyrp }\IeC {\cyra }\IeC {\cyrn }\IeC {\cyre }\IeC {\cyrl }\IeC {\cyrsftsn }: \IeC {\cyrf }\IeC {\cyra }\IeC {\cyrishrt }\IeC {\cyrl } README\relax }}{95}{figure.caption.81}
\contentsline {figure}{\numberline {9.9}{\ignorespaces \IeC {\CYRP }\IeC {\cyro }\IeC {\cyrd }\IeC {\cyrt }\IeC {\cyrv }\IeC {\cyre }\IeC {\cyrr }\IeC {\cyrzh }\IeC {\cyrd }\IeC {\cyre }\IeC {\cyrn }\IeC {\cyri }\IeC {\cyre } \IeC {\cyru }\IeC {\cyrs }\IeC {\cyrt }\IeC {\cyra }\IeC {\cyrn }\IeC {\cyro }\IeC {\cyrv }\IeC {\cyrk }\IeC {\cyri }\relax }}{96}{figure.caption.82}
\contentsline {figure}{\numberline {9.10}{\ignorespaces \IeC {\CYRV }\IeC {\cyrery }\IeC {\cyrp }\IeC {\cyro }\IeC {\cyrl }\IeC {\cyrn }\IeC {\cyre }\IeC {\cyrn }\IeC {\cyri }\IeC {\cyre } \IeC {\cyrz }\IeC {\cyra }\IeC {\cyrd }\IeC {\cyra }\IeC {\cyrn }\IeC {\cyri }\IeC {\cyrishrt }\relax }}{96}{figure.caption.83}
\contentsline {figure}{\numberline {9.11}{\ignorespaces \IeC {\CYRU }\IeC {\cyrs }\IeC {\cyrp }\IeC {\cyre }\IeC {\cyrsh }\IeC {\cyrn }\IeC {\cyro }\IeC {\cyre } \IeC {\cyrz }\IeC {\cyra }\IeC {\cyrv }\IeC {\cyre }\IeC {\cyrr }\IeC {\cyrsh }\IeC {\cyre }\IeC {\cyrn }\IeC {\cyri }\IeC {\cyre } \IeC {\cyrr }\IeC {\cyra }\IeC {\cyrb }\IeC {\cyro }\IeC {\cyrt }\IeC {\cyrery }\relax }}{97}{figure.caption.84}
\contentsline {figure}{\numberline {9.12}{\ignorespaces \IeC {\CYRS }\IeC {\cyro }\IeC {\cyro }\IeC {\cyrb }\IeC {\cyrshch }\IeC {\cyre }\IeC {\cyrn }\IeC {\cyri }\IeC {\cyre } \IeC {\cyro }\IeC {\cyrb } \IeC {\cyro }\IeC {\cyrsh }\IeC {\cyri }\IeC {\cyrb }\IeC {\cyrk }\IeC {\cyre } \IeC {\cyrv }\IeC {\cyrery }\IeC {\cyrp }\IeC {\cyro }\IeC {\cyrl }\IeC {\cyrn }\IeC {\cyre }\IeC {\cyrn }\IeC {\cyri }\IeC {\cyrya } \IeC {\cyrs }\IeC {\cyrl }\IeC {\cyra }\IeC {\cyrk }\IeC {\cyrb }\IeC {\cyri }\IeC {\cyrl }\IeC {\cyrd }\IeC {\cyra }\relax }}{97}{figure.caption.85}
\contentsline {figure}{\numberline {9.13}{\ignorespaces \IeC {\CYRO }\IeC {\cyrt }\IeC {\cyrch }\IeC {\cyryo }\IeC {\cyrt } \IeC {\cyro } \IeC {\cyrv }\IeC {\cyrery }\IeC {\cyrp }\IeC {\cyro }\IeC {\cyrl }\IeC {\cyrn }\IeC {\cyre }\IeC {\cyrn }\IeC {\cyri }\IeC {\cyri } \IeC {\cyrs }\IeC {\cyrl }\IeC {\cyra }\IeC {\cyrk }\IeC {\cyrb }\IeC {\cyri }\IeC {\cyrl }\IeC {\cyrd }\IeC {\cyra }\relax }}{97}{figure.caption.86}
\contentsline {figure}{\numberline {9.14}{\ignorespaces \IeC {\CYRS }\IeC {\cyrp }\IeC {\cyri }\IeC {\cyrs }\IeC {\cyro }\IeC {\cyrk } \IeC {\cyro }\IeC {\cyrt }\IeC {\cyrch }\IeC {\cyryo }\IeC {\cyrt }\IeC {\cyro }\IeC {\cyrv } \IeC {\cyro } \IeC {\cyrv }\IeC {\cyrery }\IeC {\cyrp }\IeC {\cyro }\IeC {\cyrl }\IeC {\cyrn }\IeC {\cyre }\IeC {\cyrn }\IeC {\cyri }\IeC {\cyri } \IeC {\cyrs }\IeC {\cyrl }\IeC {\cyra }\IeC {\cyrk }\IeC {\cyrb }\IeC {\cyri }\IeC {\cyrl }\IeC {\cyrd }\IeC {\cyro }\IeC {\cyrv }\relax }}{98}{figure.caption.87}
\contentsline {figure}{\numberline {9.15}{\ignorespaces \IeC {\CYRP }\IeC {\cyra }\IeC {\cyrn }\IeC {\cyre }\IeC {\cyrl }\IeC {\cyrsftsn } \IeC {\cyrn }\IeC {\cyra }\IeC {\cyrs }\IeC {\cyrt }\IeC {\cyrr }\IeC {\cyro }\IeC {\cyre }\IeC {\cyrk }: \IeC {\cyri }\IeC {\cyrs }\IeC {\cyrt }\IeC {\cyro }\IeC {\cyrch }\IeC {\cyrn }\IeC {\cyri }\IeC {\cyrk }\IeC {\cyri } \IeC {\cyrs }\IeC {\cyrk }\IeC {\cyrr }\IeC {\cyri }\IeC {\cyrp }\IeC {\cyrt }\IeC {\cyro }\IeC {\cyrv }\relax }}{99}{figure.caption.88}
\contentsline {figure}{\numberline {9.16}{\ignorespaces \IeC {\CYRP }\IeC {\cyra }\IeC {\cyrn }\IeC {\cyre }\IeC {\cyrl }\IeC {\cyrsftsn } \IeC {\cyrn }\IeC {\cyra }\IeC {\cyrs }\IeC {\cyrt }\IeC {\cyrr }\IeC {\cyro }\IeC {\cyre }\IeC {\cyrk }: \IeC {\cyrr }\IeC {\cyra }\IeC {\cyrb }\IeC {\cyro }\IeC {\cyrch }\IeC {\cyri }\IeC {\cyrishrt } \IeC {\cyrk }\IeC {\cyra }\IeC {\cyrt }\IeC {\cyra }\IeC {\cyrl }\IeC {\cyro }\IeC {\cyrg }\relax }}{99}{figure.caption.89}
\contentsline {figure}{\numberline {9.17}{\ignorespaces \IeC {\CYRP }\IeC {\cyra }\IeC {\cyrn }\IeC {\cyre }\IeC {\cyrl }\IeC {\cyrsftsn } \IeC {\cyrn }\IeC {\cyra }\IeC {\cyrs }\IeC {\cyrt }\IeC {\cyrr }\IeC {\cyro }\IeC {\cyre }\IeC {\cyrk }: \IeC {\cyrr }\IeC {\cyra }\IeC {\cyrz }\IeC {\cyrr }\IeC {\cyre }\IeC {\cyrsh }\IeC {\cyre }\IeC {\cyrn }\IeC {\cyri }\IeC {\cyre } \IeC {\cyrz }\IeC {\cyra }\IeC {\cyrv }\IeC {\cyri }\IeC {\cyrs }\IeC {\cyri }\IeC {\cyrm }\IeC {\cyro }\IeC {\cyrs }\IeC {\cyrt }\IeC {\cyre }\IeC {\cyrishrt }\relax }}{100}{figure.caption.90}
\addvspace {10\p@ }
\contentsline {figure}{\numberline {10.1}{\ignorespaces \IeC {\CYRP }\IeC {\cyre }\IeC {\cyrr }\IeC {\cyrv }\IeC {\cyrery }\IeC {\cyrishrt } \IeC {\cyrz }\IeC {\cyra }\IeC {\cyrp }\IeC {\cyru }\IeC {\cyrs }\IeC {\cyrk } LiloSetup\relax }}{103}{figure.caption.91}
\contentsline {figure}{\numberline {10.2}{\ignorespaces \IeC {\CYRV }\IeC {\cyrery }\IeC {\cyrb }\IeC {\cyro }\IeC {\cyrr } \IeC {\cyri }\IeC {\cyrm }\IeC {\cyre }\IeC {\cyrn }\IeC {\cyri } \IeC {\cyrz }\IeC {\cyra }\IeC {\cyrg }\IeC {\cyrr }\IeC {\cyru }\IeC {\cyrzh }\IeC {\cyra }\IeC {\cyre }\IeC {\cyrm }\IeC {\cyro }\IeC {\cyrishrt } \IeC {\cyrs }\IeC {\cyri }\IeC {\cyrs }\IeC {\cyrt }\IeC {\cyre }\IeC {\cyrm }\IeC {\cyrery }\relax }}{103}{figure.caption.92}
\contentsline {figure}{\numberline {10.3}{\ignorespaces \IeC {\CYRM }\IeC {\cyre }\IeC {\cyrn }\IeC {\cyryu } LILO \IeC {\cyrs } \IeC {\cyro }\IeC {\cyrt }\IeC {\cyrr }\IeC {\cyre }\IeC {\cyrd }\IeC {\cyra }\IeC {\cyrk }\IeC {\cyrt }\IeC {\cyri }\IeC {\cyrr }\IeC {\cyro }\IeC {\cyrv }\IeC {\cyra }\IeC {\cyrn }\IeC {\cyrn }\IeC {\cyrery }\IeC {\cyrm }\IeC {\cyri } \IeC {\cyri }\IeC {\cyrm }\IeC {\cyre }\IeC {\cyrn }\IeC {\cyra }\IeC {\cyrm }\IeC {\cyri }\relax }}{104}{figure.caption.93}
\contentsline {figure}{\numberline {10.4}{\ignorespaces \IeC {\CYRR }\IeC {\cyre }\IeC {\cyrd }\IeC {\cyra }\IeC {\cyrk }\IeC {\cyrt }\IeC {\cyri }\IeC {\cyrr }\IeC {\cyro }\IeC {\cyrv }\IeC {\cyra }\IeC {\cyrn }\IeC {\cyri }\IeC {\cyre } /etc/lilosetup \IeC {\cyrv } Leafpad'\IeC {\cyre }\relax }}{104}{figure.caption.94}
\contentsline {figure}{\numberline {10.5}{\ignorespaces \IeC {\CYRP }\IeC {\cyro }\IeC {\cyrd }\IeC {\cyrt }\IeC {\cyrv }\IeC {\cyre }\IeC {\cyrr }\IeC {\cyrzh }\IeC {\cyrd }\IeC {\cyre }\IeC {\cyrn }\IeC {\cyri }\IeC {\cyre } \IeC {\cyrn }\IeC {\cyra }\IeC {\cyrm }\IeC {\cyre }\IeC {\cyrr }\IeC {\cyre }\IeC {\cyrn }\IeC {\cyri }\IeC {\cyrishrt }\relax }}{105}{figure.caption.95}
\contentsline {figure}{\numberline {10.6}{\ignorespaces \IeC {\CYRS }\IeC {\cyro }\IeC {\cyro }\IeC {\cyrb }\IeC {\cyrshch }\IeC {\cyre }\IeC {\cyrn }\IeC {\cyri }\IeC {\cyre } \IeC {\cyro }\IeC {\cyrb } \IeC {\cyru }\IeC {\cyrs }\IeC {\cyrp }\IeC {\cyre }\IeC {\cyrh }\IeC {\cyre }\relax }}{105}{figure.caption.96}
\addvspace {10\p@ }
\contentsline {figure}{\numberline {11.1}{\ignorespaces \IeC {\CYRR }\IeC {\cyra }\IeC {\cyrb }\IeC {\cyro }\IeC {\cyrch }\IeC {\cyri }\IeC {\cyrishrt } \IeC {\cyrs }\IeC {\cyrt }\IeC {\cyro }\IeC {\cyrl } MATE \IeC {\cyrp }\IeC {\cyro }\IeC {\cyrs }\IeC {\cyrl }\IeC {\cyre } \IeC {\cyrp }\IeC {\cyre }\IeC {\cyrr }\IeC {\cyrv }\IeC {\cyro }\IeC {\cyrishrt } \IeC {\cyrz }\IeC {\cyra }\IeC {\cyrg }\IeC {\cyrr }\IeC {\cyru }\IeC {\cyrz }\IeC {\cyrk }\IeC {\cyri }\relax }}{109}{figure.caption.97}
\contentsline {figure}{\numberline {11.2}{\ignorespaces \IeC {\CYRC }\IeC {\cyre }\IeC {\cyrn }\IeC {\cyrt }\IeC {\cyrr } \IeC {\cyru }\IeC {\cyrp }\IeC {\cyrr }\IeC {\cyra }\IeC {\cyrv }\IeC {\cyrl }\IeC {\cyre }\IeC {\cyrn }\IeC {\cyri }\IeC {\cyrya } MATE\relax }}{109}{figure.caption.98}
\contentsline {figure}{\numberline {11.3}{\ignorespaces \IeC {\CYRN }\IeC {\cyra }\IeC {\cyrs }\IeC {\cyrt }\IeC {\cyrr }\IeC {\cyro }\IeC {\cyrishrt }\IeC {\cyrk }\IeC {\cyra } \IeC {\cyrk }\IeC {\cyrl }\IeC {\cyra }\IeC {\cyrv }\IeC {\cyri }\IeC {\cyra }\IeC {\cyrt }\IeC {\cyru }\IeC {\cyrr }\IeC {\cyrery }\relax }}{110}{figure.caption.99}
\contentsline {figure}{\numberline {11.4}{\ignorespaces \IeC {\CYRD }\IeC {\cyro }\IeC {\cyrb }\IeC {\cyra }\IeC {\cyrv }\IeC {\cyrl }\IeC {\cyre }\IeC {\cyrn }\IeC {\cyri }\IeC {\cyre } \IeC {\cyrk }\IeC {\cyri }\IeC {\cyrr }\IeC {\cyri }\IeC {\cyrl }\IeC {\cyrl }\IeC {\cyri }\IeC {\cyrch }\IeC {\cyre }\IeC {\cyrs }\IeC {\cyrk }\IeC {\cyro }\IeC {\cyrishrt } \IeC {\cyrr }\IeC {\cyra }\IeC {\cyrs }\IeC {\cyrk }\IeC {\cyrl }\IeC {\cyra }\IeC {\cyrd }\IeC {\cyrk }\IeC {\cyri } \IeC {\cyri } \IeC {\cyre }\IeC {\cyryo } \IeC {\cyrv }\IeC {\cyra }\IeC {\cyrr }\IeC {\cyri }\IeC {\cyra }\IeC {\cyrn }\IeC {\cyrt }\IeC {\cyra }\relax }}{110}{figure.caption.100}
\contentsline {figure}{\numberline {11.5}{\ignorespaces \IeC {\CYRO }\IeC {\cyrp }\IeC {\cyrr }\IeC {\cyre }\IeC {\cyrd }\IeC {\cyre }\IeC {\cyrl }\IeC {\cyre }\IeC {\cyrn }\IeC {\cyri }\IeC {\cyre } \IeC {\cyrp }\IeC {\cyre }\IeC {\cyrr }\IeC {\cyre }\IeC {\cyrk }\IeC {\cyrl }\IeC {\cyryu }\IeC {\cyrch }\IeC {\cyra }\IeC {\cyrt }\IeC {\cyre }\IeC {\cyrl }\IeC {\cyrya } \IeC {\cyrr }\IeC {\cyra }\IeC {\cyrs }\IeC {\cyrk }\IeC {\cyrl }\IeC {\cyra }\IeC {\cyrd }\IeC {\cyro }\IeC {\cyrk }\relax }}{111}{figure.caption.101}
\contentsline {figure}{\numberline {11.6}{\ignorespaces \IeC {\CYRP }\IeC {\cyrr }\IeC {\cyri }\IeC {\cyrl }\IeC {\cyro }\IeC {\cyrzh }\IeC {\cyre }\IeC {\cyrn }\IeC {\cyri }\IeC {\cyrya }: \IeC {\cyrs }\IeC {\cyre }\IeC {\cyrk }\IeC {\cyrc }\IeC {\cyri }\IeC {\cyrya } \IeC {\CYRA }\IeC {\cyru }\IeC {\cyrd }\IeC {\cyri }\IeC {\cyro } \IeC {\cyri } \IeC {\CYRV }\IeC {\cyri }\IeC {\cyrd }\IeC {\cyre }\IeC {\cyro }\relax }}{111}{figure.caption.102}
\contentsline {figure}{\numberline {11.7}{\ignorespaces \IeC {\CYRP }\IeC {\cyrr }\IeC {\cyri }\IeC {\cyrl }\IeC {\cyro }\IeC {\cyrzh }\IeC {\cyre }\IeC {\cyrn }\IeC {\cyri }\IeC {\cyrya }: \IeC {\cyrs }\IeC {\cyre }\IeC {\cyrk }\IeC {\cyrc }\IeC {\cyri }\IeC {\cyrya } \IeC {\CYRG }\IeC {\cyrr }\IeC {\cyra }\IeC {\cyrf }\IeC {\cyri }\IeC {\cyrk }\IeC {\cyra }\relax }}{112}{figure.caption.103}
\contentsline {figure}{\numberline {11.8}{\ignorespaces \IeC {\CYRP }\IeC {\cyrr }\IeC {\cyri }\IeC {\cyrl }\IeC {\cyro }\IeC {\cyrzh }\IeC {\cyre }\IeC {\cyrn }\IeC {\cyri }\IeC {\cyrya }: \IeC {\cyrs }\IeC {\cyre }\IeC {\cyrk }\IeC {\cyrc }\IeC {\cyri }\IeC {\cyrya } \IeC {\CYRI }\IeC {\cyrn }\IeC {\cyrt }\IeC {\cyre }\IeC {\cyrr }\IeC {\cyrn }\IeC {\cyre }\IeC {\cyrt }\relax }}{112}{figure.caption.104}
\contentsline {figure}{\numberline {11.9}{\ignorespaces \IeC {\CYRP }\IeC {\cyrr }\IeC {\cyri }\IeC {\cyrl }\IeC {\cyro }\IeC {\cyrzh }\IeC {\cyre }\IeC {\cyrn }\IeC {\cyri }\IeC {\cyrya } \IeC {\cyrs }\IeC {\cyre }\IeC {\cyrk }\IeC {\cyrc }\IeC {\cyri }\IeC {\cyrya } \IeC {\CYRO }\IeC {\cyrf }\IeC {\cyri }\IeC {\cyrs }\relax }}{113}{figure.caption.105}
\contentsline {figure}{\numberline {11.10}{\ignorespaces \IeC {\CYRP }\IeC {\cyrr }\IeC {\cyri }\IeC {\cyrl }\IeC {\cyro }\IeC {\cyrzh }\IeC {\cyre }\IeC {\cyrn }\IeC {\cyri }\IeC {\cyrya }: \IeC {\cyrs }\IeC {\cyre }\IeC {\cyrk }\IeC {\cyrc }\IeC {\cyri }\IeC {\cyrya } \IeC {\CYRP }\IeC {\cyrr }\IeC {\cyro }\IeC {\cyrg }\IeC {\cyrr }\IeC {\cyra }\IeC {\cyrm }\IeC {\cyrm }\IeC {\cyri }\IeC {\cyrr }\IeC {\cyro }\IeC {\cyrv }\IeC {\cyra }\IeC {\cyrn }\IeC {\cyri }\IeC {\cyre }\relax }}{113}{figure.caption.106}
\contentsline {figure}{\numberline {11.11}{\ignorespaces \IeC {\CYRP }\IeC {\cyrr }\IeC {\cyri }\IeC {\cyrl }\IeC {\cyro }\IeC {\cyrzh }\IeC {\cyre }\IeC {\cyrn }\IeC {\cyri }\IeC {\cyrya }: \IeC {\cyrs }\IeC {\cyre }\IeC {\cyrk }\IeC {\cyrc }\IeC {\cyri }\IeC {\cyrya } \IeC {\CYRS }\IeC {\cyrt }\IeC {\cyra }\IeC {\cyrn }\IeC {\cyrd }\IeC {\cyra }\IeC {\cyrr }\IeC {\cyrt }\IeC {\cyrn }\IeC {\cyrery }\IeC {\cyre }\relax }}{114}{figure.caption.107}
\contentsline {figure}{\numberline {11.12}{\ignorespaces \IeC {\CYRS }\IeC {\cyri }\IeC {\cyrs }\IeC {\cyrt }\IeC {\cyre }\IeC {\cyrm }\IeC {\cyra }: \IeC {\cyrs }\IeC {\cyre }\IeC {\cyrk }\IeC {\cyrc }\IeC {\cyri }\IeC {\cyrya } \IeC {\CYRP }\IeC {\cyra }\IeC {\cyrr }\IeC {\cyra }\IeC {\cyrm }\IeC {\cyre }\IeC {\cyrt }\IeC {\cyrr }\IeC {\cyrery }\relax }}{114}{figure.caption.108}
\contentsline {figure}{\numberline {11.13}{\ignorespaces \IeC {\CYRS }\IeC {\cyri }\IeC {\cyrs }\IeC {\cyrt }\IeC {\cyre }\IeC {\cyrm }\IeC {\cyra }: \IeC {\cyrs }\IeC {\cyre }\IeC {\cyrk }\IeC {\cyrc }\IeC {\cyri }\IeC {\cyrya } \IeC {\CYRA }\IeC {\cyrd }\IeC {\cyrm }\IeC {\cyri }\IeC {\cyrn }\IeC {\cyri }\IeC {\cyrs }\IeC {\cyrt }\IeC {\cyrr }\IeC {\cyri }\IeC {\cyrr }\IeC {\cyro }\IeC {\cyrv }\IeC {\cyra }\IeC {\cyrn }\IeC {\cyri }\IeC {\cyre }\relax }}{115}{figure.caption.109}
\contentsline {figure}{\numberline {11.14}{\ignorespaces \IeC {\CYRV }\IeC {\cyrery }\IeC {\cyrb }\IeC {\cyro }\IeC {\cyrr } \IeC {\cyrn }\IeC {\cyra }\IeC {\cyrch }\IeC {\cyra }\IeC {\cyrl }\IeC {\cyrsftsn }\IeC {\cyrn }\IeC {\cyro }\IeC {\cyrg }\IeC {\cyro } \IeC {\cyrz }\IeC {\cyra }\IeC {\cyrg }\IeC {\cyrr }\IeC {\cyru }\IeC {\cyrz }\IeC {\cyrch }\IeC {\cyri }\IeC {\cyrk }\IeC {\cyra }\relax }}{117}{figure.caption.110}
\contentsline {figure}{\numberline {11.15}{\ignorespaces \IeC {\CYRZ }\IeC {\cyrd }\IeC {\cyre }\IeC {\cyrs }\IeC {\cyrsftsn } \IeC {\cyrm }\IeC {\cyro }\IeC {\cyrzh }\IeC {\cyrn }\IeC {\cyro } \IeC {\cyrz }\IeC {\cyra }\IeC {\cyrd }\IeC {\cyra }\IeC {\cyrt }\IeC {\cyrsftsn } \IeC {\cyrp }\IeC {\cyra }\IeC {\cyrr }\IeC {\cyra }\IeC {\cyrm }\IeC {\cyre }\IeC {\cyrt }\IeC {\cyrr }\IeC {\cyrery } \IeC {\cyrya }\IeC {\cyrd }\IeC {\cyrr }\IeC {\cyra }\relax }}{117}{figure.caption.111}
\contentsline {figure}{\numberline {11.16}{\ignorespaces \IeC {\CYRM }\IeC {\cyre }\IeC {\cyrn }\IeC {\cyryu } \IeC {\cyrz }\IeC {\cyra }\IeC {\cyrg }\IeC {\cyrr }\IeC {\cyru }\IeC {\cyrz }\IeC {\cyrch }\IeC {\cyri }\IeC {\cyrk }\IeC {\cyra } GRUB2\relax }}{118}{figure.caption.112}
\contentsline {figure}{\numberline {11.17}{\ignorespaces \IeC {\CYRP }\IeC {\cyrr }\IeC {\cyri }\IeC {\cyrg }\IeC {\cyrl }\IeC {\cyra }\IeC {\cyrsh }\IeC {\cyre }\IeC {\cyrn }\IeC {\cyri }\IeC {\cyre } \IeC {\cyrk } \IeC {\cyra }\IeC {\cyrv }\IeC {\cyrt }\IeC {\cyro }\IeC {\cyrr }\IeC {\cyri }\IeC {\cyrz }\IeC {\cyra }\IeC {\cyrc }\IeC {\cyri }\IeC {\cyri } GDM\relax }}{118}{figure.caption.113}
\contentsline {figure}{\numberline {11.18}{\ignorespaces Openbox-\IeC {\cyrr }\IeC {\cyre }\IeC {\cyrd }\IeC {\cyra }\IeC {\cyrk }\IeC {\cyrc }\IeC {\cyri }\IeC {\cyrya }: \IeC {\cyrr }\IeC {\cyra }\IeC {\cyrb }\IeC {\cyro }\IeC {\cyrch }\IeC {\cyri }\IeC {\cyrishrt } \IeC {\cyrs }\IeC {\cyrt }\IeC {\cyro }\IeC {\cyrl }\relax }}{119}{figure.caption.114}
\contentsline {figure}{\numberline {11.19}{\ignorespaces Fluxbox-\IeC {\cyrr }\IeC {\cyre }\IeC {\cyrd }\IeC {\cyra }\IeC {\cyrk }\IeC {\cyrc }\IeC {\cyri }\IeC {\cyrya }: \IeC {\cyrr }\IeC {\cyra }\IeC {\cyrb }\IeC {\cyro }\IeC {\cyrch }\IeC {\cyri }\IeC {\cyrishrt } \IeC {\cyrs }\IeC {\cyrt }\IeC {\cyro }\IeC {\cyrl } \IeC {\cyrs } \IeC {\cyro }\IeC {\cyrk }\IeC {\cyrn }\IeC {\cyro }\IeC {\cyrm } \IeC {\cyrt }\IeC {\cyre }\IeC {\cyrr }\IeC {\cyrm }\IeC {\cyri }\IeC {\cyrn }\IeC {\cyra }\IeC {\cyrl }\IeC {\cyra }\relax }}{120}{figure.caption.115}
\contentsline {figure}{\numberline {11.20}{\ignorespaces Fluxbox-\IeC {\cyrr }\IeC {\cyre }\IeC {\cyrd }\IeC {\cyra }\IeC {\cyrk }\IeC {\cyrc }\IeC {\cyri }\IeC {\cyrya }: \IeC {\cyrs }\IeC {\cyrm }\IeC {\cyre }\IeC {\cyrn }\IeC {\cyra } \IeC {\cyrs }\IeC {\cyrt }\IeC {\cyri }\IeC {\cyrl }\IeC {\cyrya } \IeC {\cyrr }\IeC {\cyra }\IeC {\cyrb }\IeC {\cyro }\IeC {\cyrch }\IeC {\cyre }\IeC {\cyrg }\IeC {\cyro } \IeC {\cyrs }\IeC {\cyrt }\IeC {\cyro }\IeC {\cyrl }\IeC {\cyra }\relax }}{121}{figure.caption.116}
\contentsline {figure}{\numberline {11.21}{\ignorespaces Fluxbox-\IeC {\cyrr }\IeC {\cyre }\IeC {\cyrd }\IeC {\cyra }\IeC {\cyrk }\IeC {\cyrc }\IeC {\cyri }\IeC {\cyrya }: \IeC {\cyri }\IeC {\cyrz }\IeC {\cyrm }\IeC {\cyre }\IeC {\cyrn }\IeC {\cyri }\IeC {\cyrt }\IeC {\cyrsftsn } \IeC {\cyrf }\IeC {\cyro }\IeC {\cyrn }? \IeC {\CYRA } \IeC {\cyrv }\IeC {\cyro }\IeC {\cyrt } \IeC {\cyrf }\IeC {\cyri }\IeC {\cyrg }\IeC {\cyru }\IeC {\cyrsh }\IeC {\cyrk }\IeC {\cyri }!\relax }}{122}{figure.caption.117}
\contentsline {figure}{\numberline {11.22}{\ignorespaces Fluxbox-\IeC {\cyrr }\IeC {\cyre }\IeC {\cyrd }\IeC {\cyra }\IeC {\cyrk }\IeC {\cyrc }\IeC {\cyri }\IeC {\cyrya }: \IeC {\CYRP }\IeC {\cyra }\IeC {\cyrr }\IeC {\cyra }\IeC {\cyrm }\IeC {\cyre }\IeC {\cyrt }\IeC {\cyrr }\IeC {\cyrery } \IeC {\cyrr }\IeC {\cyra }\IeC {\cyrb }\IeC {\cyro }\IeC {\cyrch }\IeC {\cyre }\IeC {\cyrg }\IeC {\cyro } \IeC {\cyrs }\IeC {\cyrt }\IeC {\cyro }\IeC {\cyrl }\IeC {\cyra } \IeC {\cyrv } \IeC {\cyrg }\IeC {\cyrl }\IeC {\cyra }\IeC {\cyrv }\IeC {\cyrn }\IeC {\cyro }\IeC {\cyrm } \IeC {\cyrm }\IeC {\cyre }\IeC {\cyrn }\IeC {\cyryu }\relax }}{122}{figure.caption.118}
\contentsline {figure}{\numberline {11.23}{\ignorespaces Fluxbox-\IeC {\cyrr }\IeC {\cyre }\IeC {\cyrd }\IeC {\cyra }\IeC {\cyrk }\IeC {\cyrc }\IeC {\cyri }\IeC {\cyrya }: \IeC {\cyrv }\IeC {\cyrn }\IeC {\cyre }\IeC {\cyrsh }\IeC {\cyrn }\IeC {\cyri }\IeC {\cyrishrt } \IeC {\cyrv }\IeC {\cyri }\IeC {\cyrd } \IeC {\cyrr }\IeC {\cyra }\IeC {\cyrb }\IeC {\cyro }\IeC {\cyrch }\IeC {\cyre }\IeC {\cyrg }\IeC {\cyro } \IeC {\cyrs }\IeC {\cyrt }\IeC {\cyro }\IeC {\cyrl }\IeC {\cyra }\relax }}{123}{figure.caption.119}
\contentsline {figure}{\numberline {11.24}{\ignorespaces Fluxbox-\IeC {\cyrr }\IeC {\cyre }\IeC {\cyrd }\IeC {\cyra }\IeC {\cyrk }\IeC {\cyrc }\IeC {\cyri }\IeC {\cyrya }: \IeC {\CYRZ }\IeC {\cyrn }\IeC {\cyra }\IeC {\cyrch }\IeC {\cyrk }\IeC {\cyri } \IeC {\cyrr }\IeC {\cyra }\IeC {\cyrb }\IeC {\cyro }\IeC {\cyrch }\IeC {\cyre }\IeC {\cyrg }\IeC {\cyro } \IeC {\cyrs }\IeC {\cyrt }\IeC {\cyro }\IeC {\cyrl }\IeC {\cyra }\relax }}{124}{figure.caption.120}
\contentsline {figure}{\numberline {11.25}{\ignorespaces Fluxbox-\IeC {\cyrr }\IeC {\cyre }\IeC {\cyrd }\IeC {\cyra }\IeC {\cyrk }\IeC {\cyrc }\IeC {\cyri }\IeC {\cyrya }: \IeC {\cyrr }\IeC {\cyra }\IeC {\cyrb }\IeC {\cyro }\IeC {\cyrch }\IeC {\cyri }\IeC {\cyrishrt } \IeC {\cyrs }\IeC {\cyrt }\IeC {\cyro }\IeC {\cyrl } \IeC {\cyrk }\IeC {\cyra }\IeC {\cyrk } \IeC {\cyrd }\IeC {\cyro }\IeC {\cyrm }\IeC {\cyra }\IeC {\cyrsh }\IeC {\cyrn }\IeC {\cyri }\IeC {\cyrishrt } \IeC {\cyrk }\IeC {\cyra }\IeC {\cyrt }\IeC {\cyra }\IeC {\cyrl }\IeC {\cyro }\IeC {\cyrg }\relax }}{124}{figure.caption.121}
\contentsline {figure}{\numberline {11.26}{\ignorespaces Fluxbox-\IeC {\cyrr }\IeC {\cyre }\IeC {\cyrd }\IeC {\cyra }\IeC {\cyrk }\IeC {\cyrc }\IeC {\cyri }\IeC {\cyrya }: \IeC {\cyrr }\IeC {\cyra }\IeC {\cyrb }\IeC {\cyro }\IeC {\cyrch }\IeC {\cyri }\IeC {\cyrishrt } \IeC {\cyrs }\IeC {\cyrt }\IeC {\cyro }\IeC {\cyrl } \IeC {\cyrp }\IeC {\cyro }\IeC {\cyrs }\IeC {\cyrl }\IeC {\cyre } \IeC {\cyrn }\IeC {\cyra }\IeC {\cyrs }\IeC {\cyrt }\IeC {\cyrr }\IeC {\cyro }\IeC {\cyre }\IeC {\cyrk }\relax }}{125}{figure.caption.122}
\contentsline {figure}{\numberline {11.27}{\ignorespaces Fluxbox-\IeC {\cyrr }\IeC {\cyre }\IeC {\cyrd }\IeC {\cyra }\IeC {\cyrk }\IeC {\cyrc }\IeC {\cyri }\IeC {\cyrya }: \IeC {\cyrn }\IeC {\cyra }\IeC {\cyrs }\IeC {\cyrt }\IeC {\cyrr }\IeC {\cyro }\IeC {\cyrishrt }\IeC {\cyrk }\IeC {\cyra } \IeC {\cyrf }\IeC {\cyra }\IeC {\cyrishrt }\IeC {\cyrl }\IeC {\cyro }\IeC {\cyrv }\IeC {\cyro }\IeC {\cyrg }\IeC {\cyro } \IeC {\cyrm }\IeC {\cyre }\IeC {\cyrn }\IeC {\cyre }\IeC {\cyrd }\IeC {\cyrzh }\IeC {\cyre }\IeC {\cyrr }\IeC {\cyra }\relax }}{126}{figure.caption.123}
\contentsline {figure}{\numberline {11.28}{\ignorespaces KDE-\IeC {\cyrr }\IeC {\cyre }\IeC {\cyrd }\IeC {\cyra }\IeC {\cyrk }\IeC {\cyrc }\IeC {\cyri }\IeC {\cyrya } Slackel'\IeC {\cyra }: \IeC {\cyrm }\IeC {\cyre }\IeC {\cyrn }\IeC {\cyryu } \IeC {\cyrp }\IeC {\cyro }\IeC {\cyrs }\IeC {\cyrl }\IeC {\cyre } \IeC {\cyru }\IeC {\cyrs }\IeC {\cyrt }\IeC {\cyra }\IeC {\cyrn }\IeC {\cyro }\IeC {\cyrv }\IeC {\cyrk }\IeC {\cyri } BASIC\relax }}{127}{figure.caption.124}
\contentsline {figure}{\numberline {11.29}{\ignorespaces KDE-\IeC {\cyrr }\IeC {\cyre }\IeC {\cyrd }\IeC {\cyra }\IeC {\cyrk }\IeC {\cyrc }\IeC {\cyri }\IeC {\cyrya } Slackel'\IeC {\cyra }: \IeC {\cyrb }\IeC {\cyra }\IeC {\cyrz }\IeC {\cyro }\IeC {\cyrv }\IeC {\cyrery }\IeC {\cyre } \IeC {\cyrp }\IeC {\cyrr }\IeC {\cyri }\IeC {\cyrl }\IeC {\cyro }\IeC {\cyrzh }\IeC {\cyre }\IeC {\cyrn }\IeC {\cyri }\IeC {\cyrya }\IeC {\cyrm }\IeC {\cyri }\relax }}{128}{figure.caption.125}
\contentsline {figure}{\numberline {11.30}{\ignorespaces KDE-\IeC {\cyrr }\IeC {\cyre }\IeC {\cyrd }\IeC {\cyra }\IeC {\cyrk }\IeC {\cyrc }\IeC {\cyri }\IeC {\cyrya } Salix'\IeC {\cyra }: Konsole\relax }}{128}{figure.caption.126}
\contentsline {figure}{\numberline {11.32}{\ignorespaces KDE-\IeC {\cyrr }\IeC {\cyre }\IeC {\cyrd }\IeC {\cyra }\IeC {\cyrk }\IeC {\cyrc }\IeC {\cyri }\IeC {\cyrya } Salix'\IeC {\cyra }: Kate\relax }}{128}{figure.caption.128}
\contentsline {figure}{\numberline {11.31}{\ignorespaces KDE-\IeC {\cyrr }\IeC {\cyre }\IeC {\cyrd }\IeC {\cyra }\IeC {\cyrk }\IeC {\cyrc }\IeC {\cyri }\IeC {\cyrya } Salix'\IeC {\cyra }: Dolphin\relax }}{129}{figure.caption.127}
\contentsline {figure}{\numberline {11.33}{\ignorespaces KDE-\IeC {\cyrr }\IeC {\cyre }\IeC {\cyrd }\IeC {\cyra }\IeC {\cyrk }\IeC {\cyrc }\IeC {\cyri }\IeC {\cyrya } Salix'\IeC {\cyra }: \IeC {\cyrb }\IeC {\cyrr }\IeC {\cyra }\IeC {\cyru }\IeC {\cyrz }\IeC {\cyre }\IeC {\cyrr } Qupzilla\relax }}{129}{figure.caption.129}
\contentsline {figure}{\numberline {11.34}{\ignorespaces KDE-\IeC {\cyrr }\IeC {\cyre }\IeC {\cyrd }\IeC {\cyra }\IeC {\cyrk }\IeC {\cyrc }\IeC {\cyri }\IeC {\cyrya } Salix'\IeC {\cyra }: \IeC {\cyrn }\IeC {\cyra }\IeC {\cyrb }\IeC {\cyro }\IeC {\cyrr } Qt-\IeC {\cyri }\IeC {\cyrn }\IeC {\cyrs }\IeC {\cyrt }\IeC {\cyrr }\IeC {\cyru }\IeC {\cyrm }\IeC {\cyre }\IeC {\cyrn }\IeC {\cyrt }\IeC {\cyra }\IeC {\cyrr }\IeC {\cyri }\IeC {\cyrya }\relax }}{130}{figure.caption.130}
\contentsline {figure}{\numberline {11.35}{\ignorespaces \IeC {\CYRO }\IeC {\cyrn } \IeC {\cyrzh }\IeC {\cyre } \IeC {\cyrv } KDE-\IeC {\cyrr }\IeC {\cyre }\IeC {\cyrd }\IeC {\cyra }\IeC {\cyrk }\IeC {\cyrc }\IeC {\cyri }\IeC {\cyri } Slakel'\IeC {\cyra }\relax }}{130}{figure.caption.131}
\contentsline {figure}{\numberline {11.36}{\ignorespaces \IeC {\CYRP }\IeC {\cyri }\IeC {\cyrk }\IeC {\cyrt }\IeC {\cyro }\IeC {\cyrg }\IeC {\cyrr }\IeC {\cyra }\IeC {\cyrm }\IeC {\cyrm }\IeC {\cyra } \IeC {\cyrd }\IeC {\cyrl }\IeC {\cyrya } \IeC {\cyrz }\IeC {\cyra }\IeC {\cyrp }\IeC {\cyru }\IeC {\cyrs }\IeC {\cyrk }\IeC {\cyra } \IeC {\cyri }\IeC {\cyrn }\IeC {\cyrs }\IeC {\cyrt }\IeC {\cyra }\IeC {\cyrl }\IeC {\cyrl }\IeC {\cyrya }\IeC {\cyrt }\IeC {\cyro }\IeC {\cyrr }\IeC {\cyra }\relax }}{131}{figure.caption.132}
\contentsline {figure}{\numberline {11.37}{\ignorespaces Live-\IeC {\cyri }\IeC {\cyrn }\IeC {\cyrs }\IeC {\cyrt }\IeC {\cyra }\IeC {\cyrl }\IeC {\cyrl }\IeC {\cyrya }\IeC {\cyrt }\IeC {\cyro }\IeC {\cyrr } Salix'\IeC {\cyra }\relax }}{131}{figure.caption.133}
\contentsline {figure}{\numberline {11.38}{\ignorespaces Live-\IeC {\cyri }\IeC {\cyrn }\IeC {\cyrs }\IeC {\cyrt }\IeC {\cyra }\IeC {\cyrl }\IeC {\cyrl }\IeC {\cyrya }\IeC {\cyrt }\IeC {\cyro }\IeC {\cyrr } Slackel'\IeC {\cyra }\relax }}{132}{figure.caption.134}
\contentsline {figure}{\numberline {11.39}{\ignorespaces \IeC {\CYRZ }\IeC {\cyra }\IeC {\cyrv }\IeC {\cyre }\IeC {\cyrr }\IeC {\cyrsh }\IeC {\cyre }\IeC {\cyrn }\IeC {\cyri }\IeC {\cyre } Live-\IeC {\cyri }\IeC {\cyrn }\IeC {\cyrs }\IeC {\cyrt }\IeC {\cyra }\IeC {\cyrl }\IeC {\cyrl }\IeC {\cyrya }\IeC {\cyrc }\IeC {\cyri }\IeC {\cyri } Salix'\IeC {\cyra }\relax }}{133}{figure.caption.135}
\contentsline {figure}{\numberline {11.40}{\ignorespaces \IeC {\CYRZ }\IeC {\cyra }\IeC {\cyrv }\IeC {\cyre }\IeC {\cyrr }\IeC {\cyrsh }\IeC {\cyre }\IeC {\cyrn }\IeC {\cyri }\IeC {\cyre } Live-\IeC {\cyri }\IeC {\cyrn }\IeC {\cyrs }\IeC {\cyrt }\IeC {\cyra }\IeC {\cyrl }\IeC {\cyrl }\IeC {\cyrya }\IeC {\cyrc }\IeC {\cyri }\IeC {\cyri } Slackel'\IeC {\cyra }\relax }}{133}{figure.caption.136}
\addvspace {10\p@ }
\contentsline {figure}{\numberline {12.1}{\ignorespaces Thunar: \IeC {\cyro }\IeC {\cyrs }\IeC {\cyro }\IeC {\cyrb }\IeC {\cyrery }\IeC {\cyre } \IeC {\cyrd }\IeC {\cyre }\IeC {\cyrishrt }\IeC {\cyrs }\IeC {\cyrt }\IeC {\cyrv }\IeC {\cyri }\IeC {\cyrya }\relax }}{140}{figure.caption.137}
\contentsline {figure}{\numberline {12.2}{\ignorespaces \IeC {\CYRP }\IeC {\cyrr }\IeC {\cyri }\IeC {\cyrm }\IeC {\cyre }\IeC {\cyrr } \IeC {\cyro }\IeC {\cyrs }\IeC {\cyro }\IeC {\cyrb }\IeC {\cyro }\IeC {\cyrg }\IeC {\cyro } \IeC {\cyrd }\IeC {\cyre }\IeC {\cyrishrt }\IeC {\cyrs }\IeC {\cyrt }\IeC {\cyrv }\IeC {\cyri }\IeC {\cyrya }: \IeC {\cyro }\IeC {\cyrt }\IeC {\cyrk }\IeC {\cyrr }\IeC {\cyrery }\IeC {\cyrt }\IeC {\cyrsftsn } \IeC {\cyrt }\IeC {\cyre }\IeC {\cyrr }\IeC {\cyrm }\IeC {\cyri }\IeC {\cyrn }\IeC {\cyra }\IeC {\cyrl }\relax }}{141}{figure.caption.138}
\contentsline {figure}{\numberline {12.3}{\ignorespaces \IeC {\CYRS }\IeC {\cyro }\IeC {\cyrz }\IeC {\cyrd }\IeC {\cyra }\IeC {\cyrn }\IeC {\cyri }\IeC {\cyre } \IeC {\cyrn }\IeC {\cyro }\IeC {\cyrv }\IeC {\cyro }\IeC {\cyrg }\IeC {\cyro } \IeC {\cyrd }\IeC {\cyre }\IeC {\cyrishrt }\IeC {\cyrs }\IeC {\cyrt }\IeC {\cyrv }\IeC {\cyri }\IeC {\cyrya }\relax }}{141}{figure.caption.139}
\contentsline {figure}{\numberline {12.4}{\ignorespaces \IeC {\CYRU }\IeC {\cyrs }\IeC {\cyrl }\IeC {\cyro }\IeC {\cyrv }\IeC {\cyri }\IeC {\cyrya } \IeC {\cyro }\IeC {\cyrs }\IeC {\cyro }\IeC {\cyrb }\IeC {\cyro }\IeC {\cyrg }\IeC {\cyro } \IeC {\cyrd }\IeC {\cyre }\IeC {\cyrishrt }\IeC {\cyrs }\IeC {\cyrt }\IeC {\cyrv }\IeC {\cyri }\IeC {\cyrya }\relax }}{142}{figure.caption.140}
\contentsline {figure}{\numberline {12.5}{\ignorespaces \IeC {\CYRP }\IeC {\cyrr }\IeC {\cyri }\IeC {\cyrm }\IeC {\cyre }\IeC {\cyrr } \IeC {\cyro }\IeC {\cyrs }\IeC {\cyro }\IeC {\cyrb }\IeC {\cyro }\IeC {\cyrg }\IeC {\cyro } \IeC {\cyrd }\IeC {\cyre }\IeC {\cyrishrt }\IeC {\cyrs }\IeC {\cyrt }\IeC {\cyrv }\IeC {\cyri }\IeC {\cyrya }: \IeC {\cyrr }\IeC {\cyre }\IeC {\cyrd }\IeC {\cyra }\IeC {\cyrk }\IeC {\cyrt }\IeC {\cyri }\IeC {\cyrr }\IeC {\cyro }\IeC {\cyrv }\IeC {\cyra }\IeC {\cyrn }\IeC {\cyri }\IeC {\cyre } \IeC {\cyrf }\IeC {\cyra }\IeC {\cyrishrt }\IeC {\cyrl }\IeC {\cyra } \IeC {\cyro }\IeC {\cyrt } root'\IeC {\cyra }\relax }}{142}{figure.caption.141}
\contentsline {figure}{\numberline {12.6}{\ignorespaces \IeC {\CYRV }\IeC {\cyrery }\IeC {\cyrb }\IeC {\cyro }\IeC {\cyrr } \IeC {\cyrp }\IeC {\cyri }\IeC {\cyrk }\IeC {\cyrt }\IeC {\cyro }\IeC {\cyrg }\IeC {\cyrr }\IeC {\cyra }\IeC {\cyrm }\IeC {\cyrm }\IeC {\cyrery } \IeC {\cyrd }\IeC {\cyrl }\IeC {\cyrya } \IeC {\cyrn }\IeC {\cyro }\IeC {\cyrv }\IeC {\cyro }\IeC {\cyrg }\IeC {\cyro } \IeC {\cyrd }\IeC {\cyre }\IeC {\cyrishrt }\IeC {\cyrs }\IeC {\cyrt }\IeC {\cyrv }\IeC {\cyri }\IeC {\cyrya }\relax }}{143}{figure.caption.142}
\contentsline {figure}{\numberline {12.7}{\ignorespaces \IeC {\CYRR }\IeC {\cyre }\IeC {\cyrd }\IeC {\cyra }\IeC {\cyrk }\IeC {\cyrt }\IeC {\cyri }\IeC {\cyrr }\IeC {\cyro }\IeC {\cyrv }\IeC {\cyra }\IeC {\cyrn }\IeC {\cyri }\IeC {\cyre } \IeC {\cyrd }\IeC {\cyre }\IeC {\cyrishrt }\IeC {\cyrs }\IeC {\cyrt }\IeC {\cyrv }\IeC {\cyri }\IeC {\cyrya }: \IeC {\cyrn }\IeC {\cyra }\IeC {\cyrz }\IeC {\cyrv }\IeC {\cyra }\IeC {\cyrn }\IeC {\cyri }\IeC {\cyre }, \IeC {\cyro }\IeC {\cyrp }\IeC {\cyri }\IeC {\cyrs }\IeC {\cyra }\IeC {\cyrn }\IeC {\cyri }\IeC {\cyre }, \IeC {\cyrk }\IeC {\cyro }\IeC {\cyrm }\IeC {\cyra }\IeC {\cyrn }\IeC {\cyrd }\IeC {\cyra }\relax }}{143}{figure.caption.143}
\contentsline {figure}{\numberline {12.8}{\ignorespaces \IeC {\CYRR }\IeC {\cyre }\IeC {\cyrd }\IeC {\cyra }\IeC {\cyrk }\IeC {\cyrt }\IeC {\cyri }\IeC {\cyrr }\IeC {\cyro }\IeC {\cyrv }\IeC {\cyra }\IeC {\cyrn }\IeC {\cyri }\IeC {\cyre } \IeC {\cyrd }\IeC {\cyre }\IeC {\cyrishrt }\IeC {\cyrs }\IeC {\cyrt }\IeC {\cyrv }\IeC {\cyri }\IeC {\cyrya }: \IeC {\cyrv } \IeC {\cyrk }\IeC {\cyro }\IeC {\cyrn }\IeC {\cyrt }\IeC {\cyre }\IeC {\cyrk }\IeC {\cyrs }\IeC {\cyrt }\IeC {\cyrn }\IeC {\cyro }\IeC {\cyrm } \IeC {\cyrm }\IeC {\cyre }\IeC {\cyrn }\IeC {\cyryu } \IeC {\cyrd }\IeC {\cyrl }\IeC {\cyrya } \IeC {\cyrk }\IeC {\cyra }\IeC {\cyrt }\IeC {\cyra }\IeC {\cyrl }\IeC {\cyro }\IeC {\cyrg }\IeC {\cyro }\IeC {\cyrv }\relax }}{144}{figure.caption.144}
\contentsline {figure}{\numberline {12.9}{\ignorespaces \IeC {\CYRT }\IeC {\cyre }\IeC {\cyrr }\IeC {\cyrm }\IeC {\cyri }\IeC {\cyrn }\IeC {\cyra }\IeC {\cyrl } \IeC {\cyrs } \IeC {\cyrp }\IeC {\cyrr }\IeC {\cyra }\IeC {\cyrv }\IeC {\cyra }\IeC {\cyrm }\IeC {\cyri } root'\IeC {\cyra }\relax }}{144}{figure.caption.145}
\contentsline {figure}{\numberline {12.10}{\ignorespaces \IeC {\CYRK }\IeC {\cyro }\IeC {\cyrn }\IeC {\cyrt }\IeC {\cyre }\IeC {\cyrk }\IeC {\cyrs }\IeC {\cyrt }\IeC {\cyrn }\IeC {\cyro }\IeC {\cyre } \IeC {\cyrm }\IeC {\cyre }\IeC {\cyrn }\IeC {\cyryu } \IeC {\cyrd }\IeC {\cyrl }\IeC {\cyrya } \IeC {\cyrf }\IeC {\cyra }\IeC {\cyrishrt }\IeC {\cyrl }\IeC {\cyra }\relax }}{145}{figure.caption.146}
\contentsline {figure}{\numberline {12.11}{\ignorespaces \IeC {\CYRK }\IeC {\cyro }\IeC {\cyrn }\IeC {\cyrt }\IeC {\cyre }\IeC {\cyrk }\IeC {\cyrs }\IeC {\cyrt }\IeC {\cyrn }\IeC {\cyro }\IeC {\cyre } \IeC {\cyrm }\IeC {\cyre }\IeC {\cyrn }\IeC {\cyryu } \IeC {\cyrd }\IeC {\cyrl }\IeC {\cyrya } \IeC {\cyrk }\IeC {\cyra }\IeC {\cyrt }\IeC {\cyra }\IeC {\cyrl }\IeC {\cyro }\IeC {\cyrg }\IeC {\cyra }\relax }}{145}{figure.caption.147}
\contentsline {figure}{\numberline {12.12}{\ignorespaces \IeC {\CYRP }\IeC {\cyra }\IeC {\cyrn }\IeC {\cyre }\IeC {\cyrl }\IeC {\cyrsftsn } \IeC {\cyra }\IeC {\cyrv }\IeC {\cyrt }\IeC {\cyro }\IeC {\cyrr }\IeC {\cyri }\IeC {\cyrz }\IeC {\cyra }\IeC {\cyrc }\IeC {\cyri }\IeC {\cyri } gksu\relax }}{145}{figure.caption.148}
\contentsline {figure}{\numberline {12.13}{\ignorespaces \IeC {\CYRR }\IeC {\cyre }\IeC {\cyrd }\IeC {\cyra }\IeC {\cyrk }\IeC {\cyrt }\IeC {\cyri }\IeC {\cyrr }\IeC {\cyro }\IeC {\cyrv }\IeC {\cyra }\IeC {\cyrn }\IeC {\cyri }\IeC {\cyre } \IeC {\cyrd }\IeC {\cyre }\IeC {\cyrishrt }\IeC {\cyrs }\IeC {\cyrt }\IeC {\cyrv }\IeC {\cyri }\IeC {\cyrya }: \IeC {\CYRP }\IeC {\cyro }\IeC {\cyri }\IeC {\cyrs }\IeC {\cyrk }\relax }}{146}{figure.caption.149}
\contentsline {figure}{\numberline {12.14}{\ignorespaces MATE Search \IeC {\cyrm }\IeC {\cyre }\IeC {\cyrn }\IeC {\cyryu } Thunar'\IeC {\cyra }\relax }}{147}{figure.caption.150}
\contentsline {figure}{\numberline {12.15}{\ignorespaces MATE Search: \IeC {\cyrp }\IeC {\cyro }\IeC {\cyri }\IeC {\cyrs }\IeC {\cyrk } \IeC {\cyrp }\IeC {\cyro } \IeC {\cyrm }\IeC {\cyra }\IeC {\cyrs }\IeC {\cyrk }\IeC {\cyre } \IeC {\cyri }\IeC {\cyrm }\IeC {\cyre }\IeC {\cyrn }\IeC {\cyri }\relax }}{147}{figure.caption.151}
\contentsline {figure}{\numberline {12.16}{\ignorespaces MATE Search: \IeC {\cyrp }\IeC {\cyro }\IeC {\cyri }\IeC {\cyrs }\IeC {\cyrk } \IeC {\cyrp }\IeC {\cyro } \IeC {\cyrt }\IeC {\cyre }\IeC {\cyrk }\IeC {\cyrs }\IeC {\cyrt }\IeC {\cyru }\relax }}{148}{figure.caption.152}
\contentsline {figure}{\numberline {12.17}{\ignorespaces Tilda: \IeC {\cyro }\IeC {\cyrs }\IeC {\cyrn }\IeC {\cyro }\IeC {\cyrv }\IeC {\cyrn }\IeC {\cyrery }\IeC {\cyre } \IeC {\cyrn }\IeC {\cyra }\IeC {\cyrs }\IeC {\cyrt }\IeC {\cyrr }\IeC {\cyro }\IeC {\cyrishrt }\IeC {\cyrk }\IeC {\cyri }\relax }}{153}{figure.caption.153}
\contentsline {figure}{\numberline {12.18}{\ignorespaces Tilda: \IeC {\cyrn }\IeC {\cyra }\IeC {\cyrs }\IeC {\cyrt }\IeC {\cyrr }\IeC {\cyro }\IeC {\cyrishrt }\IeC {\cyrk }\IeC {\cyra } \IeC {\cyrv }\IeC {\cyrn }\IeC {\cyre }\IeC {\cyrsh }\IeC {\cyrn }\IeC {\cyro }\IeC {\cyrs }\IeC {\cyrt }\IeC {\cyri }\relax }}{154}{figure.caption.154}
\contentsline {figure}{\numberline {12.19}{\ignorespaces \IeC {\CYRN }\IeC {\cyra }\IeC {\cyrs }\IeC {\cyrt }\IeC {\cyrr }\IeC {\cyro }\IeC {\cyrishrt }\IeC {\cyrk }\IeC {\cyra } \IeC {\cyrv }\IeC {\cyrery }\IeC {\cyrz }\IeC {\cyro }\IeC {\cyrv }\IeC {\cyra }\relax }}{154}{figure.caption.155}
\contentsline {figure}{\numberline {12.20}{\ignorespaces Tilda: \IeC {\cyrv }\IeC {\cyri }\IeC {\cyrd } \IeC {\cyrp }\IeC {\cyro }\IeC {\cyrs }\IeC {\cyrl }\IeC {\cyre } \IeC {\cyrz }\IeC {\cyra }\IeC {\cyrp }\IeC {\cyru }\IeC {\cyrs }\IeC {\cyrk }\IeC {\cyra }\relax }}{155}{figure.caption.156}
\contentsline {figure}{\numberline {12.21}{\ignorespaces Tilda: \IeC {\cyrv }\IeC {\cyrn }\IeC {\cyre }\IeC {\cyrs }\IeC {\cyre }\IeC {\cyrn }\IeC {\cyri }\IeC {\cyre } \IeC {\cyrv } \IeC {\cyra }\IeC {\cyrv }\IeC {\cyrt }\IeC {\cyro }\IeC {\cyrz }\IeC {\cyra }\IeC {\cyrp }\IeC {\cyru }\IeC {\cyrs }\IeC {\cyrk }\relax }}{155}{figure.caption.157}
\contentsline {figure}{\numberline {12.22}{\ignorespaces Komodo Editor: \IeC {\cyrp }\IeC {\cyra }\IeC {\cyrn }\IeC {\cyre }\IeC {\cyrl }\IeC {\cyrsftsn } \IeC {\cyrd }\IeC {\cyro }\IeC {\cyrp }\IeC {\cyro }\IeC {\cyrl }\IeC {\cyrn }\IeC {\cyre }\IeC {\cyrn }\IeC {\cyri }\IeC {\cyrishrt }\relax }}{157}{figure.caption.158}
\contentsline {figure}{\numberline {12.23}{\ignorespaces Komodo Editor: \IeC {\cyrv }\IeC {\cyrery }\IeC {\cyrb }\IeC {\cyro }\IeC {\cyrr } \IeC {\cyri }\IeC {\cyrs }\IeC {\cyrt }\IeC {\cyro }\IeC {\cyrch }\IeC {\cyrn }\IeC {\cyri }\IeC {\cyrk }\IeC {\cyra } \IeC {\cyrd }\IeC {\cyro }\IeC {\cyrp }\IeC {\cyro }\IeC {\cyrl }\IeC {\cyrn }\IeC {\cyre }\IeC {\cyrn }\IeC {\cyri }\IeC {\cyrishrt }\relax }}{158}{figure.caption.159}
\contentsline {figure}{\numberline {12.24}{\ignorespaces Komodo Editor: \IeC {\cyru }\IeC {\cyrs }\IeC {\cyrt }\IeC {\cyra }\IeC {\cyrn }\IeC {\cyro }\IeC {\cyrv }\IeC {\cyrk }\IeC {\cyra } \IeC {\cyrd }\IeC {\cyro }\IeC {\cyrp }\IeC {\cyro }\IeC {\cyrl }\IeC {\cyrn }\IeC {\cyre }\IeC {\cyrn }\IeC {\cyri }\IeC {\cyrya }\relax }}{158}{figure.caption.160}
\contentsline {figure}{\numberline {12.25}{\ignorespaces Dophin: \IeC {\cyru }\IeC {\cyrs }\IeC {\cyrt }\IeC {\cyra }\IeC {\cyrn }\IeC {\cyro }\IeC {\cyrv }\IeC {\cyrk }\IeC {\cyra } \IeC {\cyrd }\IeC {\cyro }\IeC {\cyrp }\IeC {\cyro }\IeC {\cyrl }\IeC {\cyrn }\IeC {\cyre }\IeC {\cyrn }\IeC {\cyri }\IeC {\cyrishrt }\relax }}{159}{figure.caption.161}
\contentsline {figure}{\numberline {12.26}{\ignorespaces Dophin: \IeC {\cyru }\IeC {\cyrs }\IeC {\cyrt }\IeC {\cyra }\IeC {\cyrn }\IeC {\cyro }\IeC {\cyrv }\IeC {\cyrk }\IeC {\cyra } Simple Root Actions\relax }}{160}{figure.caption.162}
\contentsline {figure}{\numberline {12.27}{\ignorespaces Dophin: \IeC {\cyrv }\IeC {\cyri }\IeC {\cyrd } \IeC {\cyrm }\IeC {\cyre }\IeC {\cyrn }\IeC {\cyryu } \IeC {\cyrp }\IeC {\cyro }\IeC {\cyrs }\IeC {\cyrl }\IeC {\cyre } \IeC {\cyru }\IeC {\cyrs }\IeC {\cyrt }\IeC {\cyra }\IeC {\cyrn }\IeC {\cyro }\IeC {\cyrv }\IeC {\cyrk }\IeC {\cyri } \IeC {\cyrp }\IeC {\cyrl }\IeC {\cyra }\IeC {\cyrg }\IeC {\cyri }\IeC {\cyrn }\IeC {\cyra }\relax }}{160}{figure.caption.163}
\contentsline {figure}{\numberline {12.28}{\ignorespaces \IeC {\CYRF }\IeC {\cyra }\IeC {\cyrishrt }\IeC {\cyrl }\IeC {\cyro }\IeC {\cyrv }\IeC {\cyrery }\IeC {\cyre } \IeC {\cyrs }\IeC {\cyri }\IeC {\cyrs }\IeC {\cyrt }\IeC {\cyre }\IeC {\cyrm }\IeC {\cyrery } f2fs \IeC {\cyri } nilfs2 \IeC {\cyrv } \IeC {\cyrm }\IeC {\cyre }\IeC {\cyrn }\IeC {\cyryu } GParted\relax }}{162}{figure.caption.164}
