\BOOKMARK [0][-]{chapter.1}{\376\377\004\036\004\061\004\111\004\060\004\117\000\040\004\105\004\060\004\100\004\060\004\072\004\102\004\065\004\100\004\070\004\101\004\102\004\070\004\072\004\060\000,\000\040\004\075\004\060\004\067\004\075\004\060\004\107\004\065\004\075\004\070\004\065\000,\000\040\004\070\004\101\004\102\004\076\004\100\004\070\004\117}{}% 1
\BOOKMARK [1][-]{section.1.1}{\376\377\004\022\004\062\004\065\004\064\004\065\004\075\004\070\004\065}{chapter.1}% 2
\BOOKMARK [1][-]{section.1.2}{\376\377\004\022\004\076\004\077\004\100\004\076\004\101\004\113\000\040\004\102\004\065\004\100\004\074\004\070\004\075\004\076\004\073\004\076\004\063\004\070\004\070}{chapter.1}% 3
\BOOKMARK [1][-]{section.1.3}{\376\377\004\037\004\100\004\065\004\064\004\113\004\101\004\102\004\076\004\100\004\070\004\117}{chapter.1}% 4
\BOOKMARK [1][-]{section.1.4}{\376\377\004\037\004\076\004\117\004\062\004\073\004\065\004\075\004\070\004\065\000\040\000S\000a\000l\000i\000x}{chapter.1}% 5
\BOOKMARK [1][-]{section.1.5}{\376\377\000S\000a\000l\000i\000x\000:\000\040\004\107\004\102\004\076\000\040\004\061\004\113\004\073\004\076\000\040\004\064\004\060\004\073\004\114\004\110\004\065}{chapter.1}% 6
\BOOKMARK [0][-]{chapter.2}{\376\377\004\041\004\102\004\060\004\075\004\064\004\060\004\100\004\102\004\075\004\060\004\117\000\040\004\103\004\101\004\102\004\060\004\075\004\076\004\062\004\072\004\060}{}% 7
\BOOKMARK [1][-]{section.2.1}{\376\377\004\041\004\070\004\101\004\102\004\065\004\074\004\075\004\113\004\065\000\040\004\102\004\100\004\065\004\061\004\076\004\062\004\060\004\075\004\070\004\117}{chapter.2}% 8
\BOOKMARK [1][-]{section.2.2}{\376\377\004\037\004\076\004\064\004\063\004\076\004\102\004\076\004\062\004\072\004\060\000\040\004\070\004\101\004\102\004\076\004\107\004\075\004\070\004\072\004\060\000\040\004\103\004\101\004\102\004\060\004\075\004\076\004\062\004\072\004\070}{chapter.2}% 9
\BOOKMARK [1][-]{section.2.3}{\376\377\004\033\004\070\004\107\004\075\004\060\004\117\000\040\004\101\004\060\004\074\004\076\004\077\004\076\004\064\004\063\004\076\004\102\004\076\004\062\004\072\004\060}{chapter.2}% 10
\BOOKMARK [1][-]{section.2.4}{\376\377\004\041\004\102\004\060\004\075\004\064\004\060\004\100\004\102\004\075\004\060\004\117\000\040\004\103\004\101\004\102\004\060\004\075\004\076\004\062\004\072\004\060}{chapter.2}% 11
\BOOKMARK [1][-]{section.2.5}{\376\377\004\037\004\100\004\065\004\064\004\062\004\060\004\100\004\070\004\102\004\065\004\073\004\114\004\075\004\113\004\071\000\040\004\070\004\102\004\076\004\063}{chapter.2}% 12
\BOOKMARK [0][-]{chapter.3}{\376\377\004\022\004\060\004\100\004\070\004\060\004\075\004\102\004\113\000\040\004\103\004\101\004\102\004\060\004\075\004\076\004\062\004\072\004\070}{}% 13
\BOOKMARK [1][-]{section.3.1}{\376\377\004\022\004\062\004\065\004\064\004\065\004\075\004\070\004\065}{chapter.3}% 14
\BOOKMARK [1][-]{section.3.2}{\376\377\004\036\004\101\004\076\004\061\004\065\004\075\004\075\004\076\004\101\004\102\004\070\000\040\004\103\004\101\004\102\004\060\004\075\004\076\004\062\004\072\004\070\000\040\000B\000A\000S\000I\000C\000\040\004\070\000\040\000C\000O\000R\000E}{chapter.3}% 15
\BOOKMARK [1][-]{section.3.3}{\376\377\004\036\004\101\004\076\004\061\004\065\004\075\004\075\004\076\004\101\004\102\004\070\000\040\004\100\004\065\004\066\004\070\004\074\004\060\000\040\000A\000U\000T\000O\000I\000N\000S\000T\000A\000L\000L}{chapter.3}% 16
\BOOKMARK [1][-]{section.3.4}{\376\377\004\043\004\101\004\102\004\060\004\075\004\076\004\062\004\072\004\060\000\040\004\075\004\060\000\040\004\077\004\100\004\076\004\063\004\100\004\060\004\074\004\074\004\075\004\113\004\071\000\040\000R\000A\000I\000D}{chapter.3}% 17
\BOOKMARK [1][-]{section.3.5}{\376\377\004\025\004\101\004\102\004\114\000\040\004\073\004\070\000\040\004\076\004\101\004\076\004\061\004\065\004\075\004\075\004\076\004\101\004\102\004\070\000\040\004\077\004\100\004\070\000\040\004\103\004\101\004\102\004\060\004\075\004\076\004\062\004\072\004\065\000\040\004\075\004\060\000\040\000S\000S\000D\000?}{chapter.3}% 18
\BOOKMARK [1][-]{section.3.6}{\376\377\004\043\004\101\004\102\004\060\004\075\004\076\004\062\004\072\004\060\000\040\004\075\004\060\000\040\004\075\004\076\004\103\004\102\004\061\004\103\004\072\004\070\000\040}{chapter.3}% 19
\BOOKMARK [1][-]{section.3.7}{\376\377\004\027\004\060\004\072\004\073\004\116\004\107\004\065\004\075\004\070\004\065\000\040}{chapter.3}% 20
\BOOKMARK [0][-]{chapter.4}{\376\377\004\030\004\102\004\076\004\063\004\070\000\040\004\103\004\101\004\102\004\060\004\075\004\076\004\062\004\072\004\070}{}% 21
\BOOKMARK [1][-]{section.4.1}{\376\377\004\035\004\060\004\107\004\060\004\073\004\114\004\075\004\060\004\117\000\040\004\067\004\060\004\063\004\100\004\103\004\067\004\072\004\060}{chapter.4}% 22
\BOOKMARK [1][-]{section.4.2}{\376\377\004\022\004\060\004\100\004\070\004\060\004\075\004\102\000\040\000F\000U\000L\000L}{chapter.4}% 23
\BOOKMARK [1][-]{section.4.3}{\376\377\004\022\004\060\004\100\004\070\004\060\004\075\004\102\000\040\000B\000A\000S\000I\000C}{chapter.4}% 24
\BOOKMARK [1][-]{section.4.4}{\376\377\004\022\004\060\004\100\004\070\004\060\004\075\004\102\000\040\000C\000O\000R\000E}{chapter.4}% 25
\BOOKMARK [1][-]{section.4.5}{\376\377\004\032\004\100\004\060\004\102\004\072\004\070\004\071\000\040\004\070\004\102\004\076\004\063}{chapter.4}% 26
\BOOKMARK [0][-]{chapter.5}{\376\377\004\043\004\077\004\100\004\060\004\062\004\073\004\065\004\075\004\070\004\065\000\040\004\077\004\060\004\072\004\065\004\102\004\060\004\074\004\070\000:\000\040\000s\000l\000a\000p\000t\000-\000g\000e\000t}{}% 27
\BOOKMARK [1][-]{section.5.1}{\376\377\004\022\004\062\004\065\004\064\004\065\004\075\004\070\004\065}{chapter.5}% 28
\BOOKMARK [1][-]{section.5.2}{\376\377\004\043\004\077\004\100\004\060\004\062\004\073\004\065\004\075\004\070\004\065\000\040\004\077\004\060\004\072\004\065\004\102\004\060\004\074\004\070\000:\000\040\004\076\004\061\004\067\004\076\004\100}{chapter.5}% 29
\BOOKMARK [1][-]{section.5.3}{\376\377\004\043\004\102\004\070\004\073\004\070\004\102\004\060\000\040\000s\000l\000a\000p\000t\000-\000g\000e\000t\000:\000\040\004\076\004\061\004\067\004\076\004\100\000\040}{chapter.5}% 30
\BOOKMARK [1][-]{section.5.4}{\376\377\004\043\004\102\004\070\004\073\004\070\004\102\004\060\000\040\000s\000l\000a\000p\000t\000-\000g\000e\000t\000:\000\040\004\077\004\100\004\070\004\074\004\065\004\075\004\065\004\075\004\070\004\065\000\040}{chapter.5}% 31
\BOOKMARK [1][-]{section.5.5}{\376\377\004\037\004\060\004\100\004\060\000\040\004\101\004\073\004\076\004\062\000\040\004\062\000\040\004\067\004\060\004\072\004\073\004\116\004\107\004\065\004\075\004\070\004\065}{chapter.5}% 32
\BOOKMARK [0][-]{chapter.6}{\376\377\004\043\004\077\004\100\004\060\004\062\004\073\004\065\004\075\004\070\004\065\000\040\004\077\004\060\004\072\004\065\004\102\004\060\004\074\004\070\000:\000\040\004\100\004\065\004\077\004\076\004\067\004\070\004\102\004\076\004\100\004\070\004\070}{}% 33
\BOOKMARK [1][-]{section.6.1}{\376\377\004\041\004\065\004\100\004\070\004\070\000\040\004\077\004\060\004\072\004\065\004\102\004\076\004\062\000\040\000S\000l\000a\000c\000k\000w\000a\000r\000e\000:\000\040\004\062\004\074\004\065\004\101\004\102\004\076\000\040\004\062\004\062\004\065\004\064\004\065\004\075\004\070\004\117}{chapter.6}% 34
\BOOKMARK [1][-]{section.6.2}{\376\377\004\040\004\065\004\077\004\076\004\067\004\070\004\102\004\076\004\100\004\070\004\070\000\040\000S\000a\000l\000i\000x}{chapter.6}% 35
\BOOKMARK [1][-]{section.6.3}{\376\377\004\035\004\060\004\101\004\102\004\100\004\076\004\071\004\072\004\060\000\040\000s\000l\000a\000p\000t\000-\000g\000e\000t}{chapter.6}% 36
\BOOKMARK [1][-]{section.6.4}{\376\377\004\024\004\076\004\077\004\076\004\073\004\075\004\070\004\102\004\065\004\073\004\114\004\075\004\113\004\065\000\040\004\100\004\065\004\077\004\076\004\067\004\070\004\102\004\076\004\100\004\070\004\070}{chapter.6}% 37
\BOOKMARK [0][-]{chapter.7}{\376\377\004\043\004\077\004\100\004\060\004\062\004\073\004\065\004\075\004\070\004\065\000\040\004\077\004\060\004\072\004\065\004\102\004\060\004\074\004\070\000:\000\040\000G\000s\000l\000a\000p\000t}{}% 38
\BOOKMARK [1][-]{section.7.1}{\376\377\004\036\004\061\004\067\004\076\004\100}{chapter.7}% 39
\BOOKMARK [1][-]{section.7.2}{\376\377\004\024\004\065\004\071\004\101\004\102\004\062\004\070\004\117\000\040\004\101\000\040\004\076\004\102\004\064\004\065\004\073\004\114\004\075\004\113\004\074\004\070\000\040\004\077\004\060\004\072\004\065\004\102\004\060\004\074\004\070}{chapter.7}% 40
\BOOKMARK [1][-]{section.7.3}{\376\377\004\023\004\100\004\103\004\077\004\077\004\076\004\062\004\113\004\065\000\040\004\064\004\065\004\071\004\101\004\102\004\062\004\070\004\117\000\040\004\101\000\040\004\077\004\060\004\072\004\065\004\102\004\060\004\074\004\070}{chapter.7}% 41
\BOOKMARK [1][-]{section.7.4}{\376\377\004\035\004\060\004\101\004\102\004\100\004\076\004\071\004\072\004\060\000\040\000G\000s\000l\000a\000p\000t}{chapter.7}% 42
\BOOKMARK [1][-]{section.7.5}{\376\377\004\032\004\100\004\060\004\102\004\072\004\070\004\071\000\040\004\070\004\102\004\076\004\063}{chapter.7}% 43
\BOOKMARK [0][-]{chapter.8}{\376\377\004\043\004\077\004\100\004\060\004\062\004\073\004\065\004\075\004\070\004\065\000\040\004\077\004\060\004\072\004\065\004\102\004\060\004\074\004\070\000:\000\040\004\101\004\061\004\076\004\100\004\072\004\060\000\040\004\070\004\067\000\040\004\070\004\101\004\105\004\076\004\064\004\075\004\113\004\105\000\040\004\102\004\065\004\072\004\101\004\102\004\076\004\062}{}% 44
\BOOKMARK [1][-]{section.8.1}{\376\377\004\047\004\102\004\076\000\040\004\102\004\060\004\072\004\076\004\065\000\040\000s\000l\000a\000c\000k\000b\000u\000i\000l\000d\000s}{chapter.8}% 45
\BOOKMARK [1][-]{section.8.2}{\376\377\004\041\004\073\004\060\004\072\004\061\004\070\004\073\004\064\004\113\000\040\004\070\000\040\000S\000a\000l\000i\000x}{chapter.8}% 46
\BOOKMARK [1][-]{section.8.3}{\376\377\004\043\004\102\004\070\004\073\004\070\004\102\004\060\000\040\000s\000l\000a\000p\000t\000-\000s\000r\000c}{chapter.8}% 47
\BOOKMARK [0][-]{chapter.9}{\376\377\004\043\004\077\004\100\004\060\004\062\004\073\004\065\004\075\004\070\004\065\000\040\004\077\004\060\004\072\004\065\004\102\004\060\004\074\004\070\000:\000\040\004\076\004\061\004\076\004\073\004\076\004\107\004\072\004\060\000\040\000S\000o\000u\000r\000c\000e\000r\000y}{}% 48
\BOOKMARK [1][-]{section.9.1}{\376\377\004\022\004\101\004\102\004\103\004\077\004\073\004\065\004\075\004\070\004\065}{chapter.9}% 49
\BOOKMARK [1][-]{section.9.2}{\376\377\004\037\004\100\004\070\004\074\004\065\004\100\000\040\004\077\004\100\004\070\004\074\004\065\004\075\004\065\004\075\004\070\004\117}{chapter.9}% 50
\BOOKMARK [1][-]{section.9.3}{\376\377\004\035\004\065\004\074\004\075\004\076\004\063\004\076\000\040\004\076\000\040\004\075\004\060\004\101\004\102\004\100\004\076\004\071\004\072\004\065}{chapter.9}% 51
\BOOKMARK [0][-]{chapter.10}{\376\377\000\253\004\044\004\070\004\100\004\074\004\065\004\075\004\075\004\113\004\065\000\273\000\040\004\103\004\102\004\070\004\073\004\070\004\102\004\113}{}% 52
\BOOKMARK [0][-]{chapter.11}{\376\377\004\040\004\065\004\064\004\060\004\072\004\106\004\070\004\070\000\040\004\070\000\040\004\101\004\076\004\100\004\076\004\064\004\070\004\107\004\070}{}% 53
\BOOKMARK [1][-]{section.11.1}{\376\377\000S\000a\000l\000i\000x\000:\000\040\000M\000A\000T\000E\000-\004\100\004\065\004\064\004\060\004\072\004\106\004\070\004\117}{chapter.11}% 54
\BOOKMARK [1][-]{section.11.2}{\376\377\000S\000l\000a\000c\000k\000e\000l\000,\000\040\004\101\004\113\004\075\000\040\000S\000a\000l\000i\000x\000'\004\060\000:\000\040\004\062\004\101\004\102\004\103\004\077\004\073\004\065\004\075\004\070\004\065}{chapter.11}% 55
\BOOKMARK [1][-]{section.11.3}{\376\377\000S\000l\000a\000c\000k\000e\000l\000,\000\040\004\101\004\113\004\075\000\040\000S\000a\000l\000i\000x\000'\004\060\000:\000\040\000*\000b\000o\000x\000'\004\076\004\062\004\113\004\065\000\040\004\100\004\065\004\064\004\060\004\072\004\106\004\070\004\070}{chapter.11}% 56
\BOOKMARK [1][-]{section.11.4}{\376\377\000S\000l\000a\000c\000k\000e\000l\000\040\004\070\000\040\000S\000a\000l\000i\000x\000:\000\040\000K\000D\000E\000-\004\100\004\065\004\064\004\060\004\072\004\106\004\070\004\070}{chapter.11}% 57
\BOOKMARK [1][-]{section.11.5}{\376\377\000S\000a\000l\000i\000x\000\040\004\070\000\040\000S\000l\000a\000c\000k\000e\000l\000:\000\040\004\103\004\101\004\102\004\060\004\075\004\076\004\062\004\072\004\060\000\040\004\101\000\040\000L\000i\000v\000e\000C\000D\000,\000\040\004\070\004\073\004\070\000\040\004\077\004\100\004\076\004\111\004\065\000\040\004\075\004\065\004\072\004\103\004\064\004\060}{chapter.11}% 58
\BOOKMARK [0][-]{chapter.12}{\376\377\004\040\004\060\004\067\004\075\004\113\004\065\000\040\004\074\004\065\004\073\004\072\004\070\004\065\000\040\004\077\004\076\004\073\004\065\004\067\004\075\004\076\004\101\004\102\004\070}{}% 59
\BOOKMARK [1][-]{section.12.1}{\376\377\004\030\004\101\004\072\004\076\004\100\004\065\004\075\004\065\004\075\004\070\004\065\000\040\004\072\004\070\004\100\004\070\004\073\004\073\004\070\004\106\004\113\000\040\004\070\004\067\000\040\004\064\004\076\004\074\004\060\004\110\004\075\004\065\004\063\004\076\000\040\004\072\004\060\004\102\004\060\004\073\004\076\004\063\004\060}{chapter.12}% 60
\BOOKMARK [1][-]{section.12.2}{\376\377\004\024\004\076\004\062\004\076\004\064\004\072\004\060\000\040\004\072\004\076\004\075\004\101\004\076\004\073\004\114\004\075\004\076\004\063\004\076\000\040\004\100\004\065\004\066\004\070\004\074\004\060\000:\000\040\004\062\004\072\004\073\004\116\004\107\004\065\004\075\004\070\004\065\000\040\004\074\004\113\004\110\004\070\000\040\004\062\000\040\004\072\004\076\004\075\004\101\004\076\004\073\004\070}{chapter.12}% 61
\BOOKMARK [1][-]{section.12.3}{\376\377\004\024\004\076\004\062\004\076\004\064\004\072\004\060\000\040\004\072\004\076\004\075\004\101\004\076\004\073\004\114\004\075\004\076\004\063\004\076\000\040\004\100\004\065\004\066\004\070\004\074\004\060\000:\000\040\004\100\004\103\004\101\004\070\004\104\004\070\004\072\004\060\004\106\004\070\004\117\000\040\004\062\004\113\004\062\004\076\004\064\004\060}{chapter.12}% 62
\BOOKMARK [1][-]{section.12.4}{\376\377\000T\000h\000u\000n\000a\000r\000\040\004\070\000\040\004\060\004\100\004\105\004\070\004\062\004\113}{chapter.12}% 63
\BOOKMARK [1][-]{section.12.5}{\376\377\000T\000h\000u\000n\000a\000r\000\040\004\070\000\040\004\077\004\100\004\060\004\062\004\060\000\040\000r\000o\000o\000t\000'\004\060}{chapter.12}% 64
\BOOKMARK [1][-]{section.12.6}{\376\377\000T\000h\000u\000n\000a\000r\000\040\004\070\000\040\004\077\004\076\004\070\004\101\004\072\000\040\004\104\004\060\004\071\004\073\004\076\004\062}{chapter.12}% 65
\BOOKMARK [1][-]{section.12.7}{\376\377\000T\000h\000u\000n\000a\000r\000\040\004\070\000\040\004\057\004\075\004\064\004\065\004\072\004\101\000.\004\024\004\070\004\101\004\072}{chapter.12}% 66
\BOOKMARK [1][-]{section.12.8}{\376\377\004\050\004\077\004\060\004\100\004\063\004\060\004\073\004\072\004\070\000\040\004\077\004\076\000\040\004\103\004\101\004\102\004\060\004\075\004\076\004\062\004\072\004\065\000\040\004\077\004\060\004\072\004\065\004\102\004\076\004\062\000:\000\040\000g\000T\000h\000u\000m\000b}{chapter.12}% 67
\BOOKMARK [1][-]{section.12.9}{\376\377\004\050\004\077\004\060\004\100\004\063\004\060\004\073\004\072\004\070\000\040\004\077\004\076\000\040\004\103\004\101\004\102\004\060\004\075\004\076\004\062\004\072\004\065\000\040\004\077\004\060\004\072\004\065\004\102\004\076\004\062\000:\000\040\000G\000P\000R\000e\000n\000a\000m\000e}{chapter.12}% 68
\BOOKMARK [1][-]{section.12.10}{\376\377\004\050\004\077\004\060\004\100\004\063\004\060\004\073\004\072\004\070\000\040\004\077\004\076\000\040\004\103\004\101\004\102\004\060\004\075\004\076\004\062\004\072\004\065\000\040\004\077\004\060\004\072\004\065\004\102\004\076\004\062\000:\000\040\000C\000h\000r\000o\000m\000i\000u\000m}{chapter.12}% 69
\BOOKMARK [1][-]{section.12.11}{\376\377\004\050\004\077\004\060\004\100\004\063\004\060\004\073\004\072\004\070\000\040\004\077\004\076\000\040\004\103\004\101\004\102\004\060\004\075\004\076\004\062\004\072\004\065\000\040\004\077\004\060\004\072\004\065\004\102\004\076\004\062\000:\000\040\004\034\004\103\004\073\004\114\004\102\004\070\004\074\004\065\004\064\004\070\004\060}{chapter.12}% 70
\BOOKMARK [1][-]{section.12.12}{\376\377\004\050\004\077\004\060\004\100\004\063\004\060\004\073\004\072\004\070\000\040\004\077\004\076\000\040\004\103\004\101\004\102\004\060\004\075\004\076\004\062\004\072\004\065\000\040\004\077\004\060\004\072\004\065\004\102\004\076\004\062\000:\000\040\004\062\004\113\004\077\004\060\004\064\004\060\004\116\004\111\004\070\004\071\000\040\004\102\004\065\004\100\004\074\004\070\004\075\004\060\004\073\000\040\000T\000i\000l\000d\000a}{chapter.12}% 71
\BOOKMARK [1][-]{section.12.13}{\376\377\004\050\004\077\004\060\004\100\004\063\004\060\004\073\004\072\004\070\000\040\004\077\004\076\000\040\004\103\004\101\004\102\004\060\004\075\004\076\004\062\004\072\004\065\000\040\004\077\004\060\004\072\004\065\004\102\004\076\004\062\000:\000\040\000V\000i\000r\000t\000u\000a\000l\000B\000o\000x}{chapter.12}% 72
\BOOKMARK [1][-]{section.12.14}{\376\377\004\050\004\077\004\060\004\100\004\063\004\060\004\073\004\072\004\070\000\040\004\077\004\076\000\040\004\103\004\101\004\102\004\060\004\075\004\076\004\062\004\072\004\065\000\040\004\077\004\060\004\072\004\065\004\102\004\076\004\062\000:\000\040\000K\000o\000m\000o\000d\000o\000\040\000E\000d\000i\000t\000o\000r}{chapter.12}% 73
\BOOKMARK [1][-]{section.12.15}{\376\377\000D\000o\000l\000p\000h\000i\000n\000\040\004\070\000\040\000R\000o\000o\000t}{chapter.12}% 74
\BOOKMARK [1][-]{section.12.16}{\376\377\004\037\004\076\004\064\004\064\004\065\004\100\004\066\004\072\004\060\000\040\000f\0002\000f\000s\000\040\004\070\000\040\000n\000i\000l\000f\000s\0002}{chapter.12}% 75
\BOOKMARK [1][-]{section.12.17}{\376\377\004\037\004\076\004\064\004\064\004\065\004\100\004\066\004\072\004\060\000\040\000Z\000F\000S}{chapter.12}% 76
\BOOKMARK [0][-]{chapter*.165}{\376\377\004\037\004\060\004\100\004\060\000\040\004\101\004\073\004\076\004\062\000\040\004\062\000\040\004\067\004\060\004\072\004\073\004\116\004\107\004\065\004\075\004\070\004\065}{}% 77
\BOOKMARK [0][-]{chapter*.166}{\376\377\004\037\004\100\004\070\004\073\004\076\004\066\004\065\004\075\004\070\004\065\000.\000\040\000S\000l\000a\000c\000k\000w\000a\000r\000e\000:\000\040\004\064\004\076\004\077\004\076\004\073\004\075\004\070\004\102\004\065\004\073\004\114\004\075\004\113\004\065\000\040\004\100\004\065\004\077\004\076\004\067\004\070\004\102\004\076\004\100\004\070\004\070}{}% 78
\BOOKMARK [1][-]{section.12.18}{\376\377\004\040\004\065\004\077\004\076\004\067\004\070\004\102\004\076\004\100\004\070\004\071\000\040\000S\000l\000a\000c\000k\000w\000a\000r\000e}{chapter*.166}% 79
\BOOKMARK [1][-]{section.12.19}{\376\377\004\030\004\075\004\102\004\065\004\063\004\100\004\070\004\100\004\076\004\062\004\060\004\075\004\075\004\113\004\065\000\040\004\100\004\065\004\077\004\076\004\067\004\070\004\102\004\076\004\100\004\070\004\070}{chapter*.166}% 80
\BOOKMARK [1][-]{section.12.20}{\376\377\004\040\004\065\004\077\004\076\004\067\004\070\004\102\004\076\004\100\004\070\004\070\000\040\004\077\004\100\004\117\004\074\004\113\004\105\000\040\004\072\004\073\004\076\004\075\004\076\004\062}{chapter*.166}% 81
\BOOKMARK [1][-]{section.12.21}{\376\377\004\040\004\065\004\077\004\076\004\067\004\070\004\102\004\076\004\100\004\070\004\070\000\040\004\076\004\061\004\111\004\065\004\063\004\076\000\040\004\075\004\060\004\067\004\075\004\060\004\107\004\065\004\075\004\070\004\117}{chapter*.166}% 82
\BOOKMARK [1][-]{section.12.22}{\376\377\004\040\004\065\004\077\004\076\004\067\004\070\004\102\004\076\004\100\004\070\004\070\000\040\004\076\004\102\004\064\004\065\004\073\004\114\004\075\004\113\004\105\000\040\004\064\004\065\004\101\004\072\004\102\004\076\004\077\004\076\004\062\000\040\004\070\000\040\004\076\004\072\004\076\004\075\004\075\004\113\004\105\000\040\004\074\004\065\004\075\004\065\004\064\004\066\004\065\004\100\004\076\004\062}{chapter*.166}% 83
\BOOKMARK [1][-]{section.12.23}{\376\377\004\037\004\065\004\100\004\101\004\076\004\075\004\060\004\073\004\114\004\075\004\113\004\065\000\040\004\100\004\065\004\077\004\076\004\067\004\070\004\102\004\076\004\100\004\070\004\070}{chapter*.166}% 84
\BOOKMARK [1][-]{section.12.24}{\376\377\004\041\004\073\004\103\004\066\004\061\004\113\000\040\004\077\004\076\004\070\004\101\004\072\004\060\000\040\004\077\004\060\004\072\004\065\004\102\004\076\004\062}{chapter*.166}% 85
\BOOKMARK [0][-]{chapter*.167}{\376\377\004\033\004\070\004\101\004\102\004\070\004\075\004\063\004\070}{}% 86
\BOOKMARK [0][-]{chapter*.167}{\376\377\004\041\004\077\004\070\004\101\004\076\004\072\000\040\004\070\004\073\004\073\004\116\004\101\004\102\004\100\004\060\004\106\004\070\004\071}{}% 87
\BOOKMARK [0][-]{chapter*.169}{\376\377\004\041\004\077\004\070\004\101\004\076\004\072\000\040\004\102\004\060\004\061\004\073\004\070\004\106}{}% 88
\BOOKMARK [0][-]{chapter*.169}{\376\377\004\037\004\100\004\065\004\064\004\074\004\065\004\102\004\075\004\113\004\071\000\040\004\103\004\072\004\060\004\067\004\060\004\102\004\065\004\073\004\114}{}% 89
\BOOKMARK [0][-]{chapter*.169}{\376\377\004\036\004\063\004\073\004\060\004\062\004\073\004\065\004\075\004\070\004\065}{}% 90
